Place,Name,Sex,BirthDate,Equipment,Division,BodyweightKg,WeightClassKg,Team,Bench1Kg,Bench2Kg,Bench3Kg,Best3BenchKg,TotalKg,Event
1,Sunil Kumar,M,1987-06-21,Raw,Open,58.8,59,RJ,120,127.5,-141,127.5,127.5,B
2,Arjun,M,1983-05-17,Raw,Open,57.6,59,RJ,115,125,-127.5,125,125,B
3,Utkarsh Giri,M,1999-04-03,Raw,Open,58.6,59,MH,125,-130,-132.5,125,125,B
4,Pranjal Rathore,M,1998-07-22,Raw,Open,58,59,MP,-117.5,122.5,-127.5,122.5,122.5,B
5,Pankaj,M,1998-09-21,Raw,Open,59,59,HR,115,-122.5,-125,115,115,B
6,Kiran Biswa,M,1997-06-17,Raw,Open,58.5,59,ML,100,105,-115,105,105,B
7,Vignesh S,M,1998-10-20,Raw,Open,50.3,59,TN,-92.5,92.5,-95,92.5,92.5,B
8,Vikas Mehra,M,1995-08-26,Raw,Open,47.5,59,JK,-90,90,-100,90,90,B
9,Biswajit Bauri,M,1996-12-25,Raw,Open,58.2,59,WB,90,-97.5,-97.5,90,90,B
10,Habamut Thymmai Kharlyngdoh,M,2006-09-02,Raw,Open,55.9,59,ML,-60,65,75,75,75,B
11,Sumit Bane,M,1994-05-15,Raw,Open,54.2,59,GA,50,65,72.5,72.5,72.5,B
1,Satyajeet Singh,M,1994-02-05,Raw,Open,64.8,66,JK,140,147.5,-150,147.5,147.5,B
2,Gobinda Ghosh,M,1998-12-01,Raw,Open,66,66,GA,-145,145,-151,145,145,B
3,Sanjay Shahi,M,1998-01-30,Raw,Open,66,66,PY,127.5,135,-140,135,135,B
4,Padmanathan T,M,1995-07-31,Raw,Open,64.9,66,TN,120,-122.5,-122.5,120,120,B
5,Lucky Patel,M,1998-05-29,Raw,Open,65.5,66,MP,115,120,-122.5,120,120,B
6,Roshan Zameer B,M,1986-08-02,Raw,Open,65.6,66,KA,105,-112.5,-115,105,105,B
7,Kamru Deen,M,1987-08-04,Raw,Open,65.9,66,RJ,105,-110,-115,105,105,B
8,Tyngshain Kupar Mawlong,M,1989-01-12,Raw,Open,65,66,ML,90,-105,-110,90,90,B
9,Pathan Aslam,M,1991-03-06,Raw,Open,65.5,66,TE,-90,90,-92.5,90,90,B
1,Akshay Shanmughan,M,1992-03-23,Raw,Open,73.8,74,MH,157.5,-161,161,161,161,B
2,Dharam Veer,M,1989-08-07,Raw,Open,73.1,74,CH,-142.5,147.5,152.5,152.5,152.5,B
3,Avinash Chorghe,M,1990-03-27,Raw,Open,72,74,MH,130,140,147.5,147.5,147.5,B
4,Vali Basha,M,1984-01-02,Raw,Open,73.6,74,KA,135,140,-145,140,140,B
5,Abhishek Soni,M,1994-08-07,Raw,Open,73.6,74,JH,135,140,-142.5,140,140,B
6,Deepak,M,1997-07-27,Raw,Open,70.8,74,HR,135,-145,-145,135,135,B
7,Shashidas Mahant,M,1991-07-30,Raw,Open,73.2,74,CG,110,130,-142.5,130,130,B
8,Vikram Singh Shekhawat,M,1999-03-03,Raw,Open,73.7,74,RJ,130,-137.5,-137.5,130,130,B
9,Prince,M,1996-03-02,Raw,Open,67.9,74,DL,115,-125,-125,115,115,B
10,Jith T Augustin,M,1998-06-01,Raw,Open,71.8,74,KL,110,-117.5,-117.5,110,110,B
11,Ranveer Kumar,M,1990-01-15,Raw,Open,73,74,CG,110,-115,-115,110,110,B
12,Narayan Rahul,M,1998-07-31,Raw,Open,73.2,74,GA,100,110,-120,110,110,B
13,Rushikesh Zanje,M,1995-08-30,Raw,Open,73.6,74,GJ,95,97.5,-102.5,97.5,97.5,B
DQ,Dhirendra Singh,M,2002-02-13,Raw,Open,72.3,74,UP,-145,-150,-150,,,B
1,Ashish Rajput,M,1993-11-21,Raw,Open,79.5,83,DL,160,165,-167.5,165,165,B
2,Md. Harish Tausif,M,1994-06-24,Raw,Open,81.7,83,BR,155,162.5,-165,162.5,162.5,B
3,Rajesh Atmaram Lanjekar,M,1992-12-14,Raw,Open,81.7,83,MH,147.5,157.5,-165,157.5,157.5,B
4,Sumit Bhati,M,1988-01-20,Raw,Open,82.6,83,MP,152.5,-157.5,-160,152.5,152.5,B
5,Mahendra Kumar Singh,M,1989-11-23,Raw,Open,83,83,JH,150,-157.5,-160,150,150,B
6,Shibu S,M,1991-07-08,Raw,Open,83,83,KL,135,-140,-140,135,135,B
7,Bhupesh Verma,M,1998-08-06,Raw,Open,80.6,83,CG,100,107.5,-112.5,107.5,107.5,B
8,Pramod Naik,M,1987-10-10,Raw,Open,78.3,83,GA,62.5,75,82.5,82.5,82.5,B
DQ,Pankaj Chib,M,1994-06-10,Raw,Open,82.8,83,JK,-180,-180,-180,,,B
1,Mayur Shinde,M,1997-05-25,Raw,Open,91.6,93,MH,172.5,180,182.5,182.5,182.5,B
2,Parul Kumar,M,1986-02-06,Raw,Open,90,93,UP,175,-180,-180,175,175,B
3,Sandeep Kumar,M,1991-08-15,Raw,Open,93,93,HR,170,-177.5,-177.5,170,170,B
4,Vishal Singh,M,1997-03-04,Raw,Open,87.6,93,JK,157.5,162.5,-170,162.5,162.5,B
5,Parveen,M,1994-12-06,Raw,Open,92.2,93,HR,162.5,-172.5,-175,162.5,162.5,B
6,Piesty Abraham,M,1998-01-06,Raw,Open,92.6,93,KL,150,162.5,-170,162.5,162.5,B
7,Kuldeep Parihar,M,1994-07-22,Raw,Open,92.5,93,RJ,145,152.5,-160,152.5,152.5,B
8,Animesh Prajapati,M,1995-09-13,Raw,Open,88.2,93,MP,-137.5,137.5,-145,137.5,137.5,B
9,Manan Pandier,M,1999-05-22,Raw,Open,91.6,93,GJ,125,132.5,135,135,135,B
10,Maruf Shaikh,M,1983-12-20,Raw,Open,93,93,GA,120,125,-130,125,125,B
DQ,Novshath Haroon Rasheeth,M,1987-02-14,Raw,Open,89,93,TN,-132.5,-132.5,-142.5,,,B
1,Bhaskar Shah,M,1992-08-09,Raw,Open,105,105,PY,192.5,-197.5,197.5,197.5,197.5,B
2,Deepak Nand,M,1989-12-17,Raw,Open,97.4,105,HR,177.5,187.5,-192.5,187.5,187.5,B
3,Gaurav Kumar,M,1999-08-16,Raw,Open,100.3,105,UP,175,180,-187.5,180,180,B
4,Raman Rattan Rout,M,1996-06-06,Raw,Open,103.4,105,OR,160,175,-185,175,175,B
5,Shoeb Shah,M,1985-10-06,Raw,Open,105,105,MH,175,-187.5,-190,175,175,B
6,Vikram Deep,M,1995-04-23,Raw,Open,105,105,JK,175,-182.5,-185,175,175,B
7,Harsh Raj Ranjan,M,1997-10-01,Raw,Open,103.2,105,BR,145,157.5,-162.5,157.5,157.5,B
8,Chandan Ballav,M,1987-06-07,Raw,Open,103,105,WB,155,-170,,155,155,B
9,Ravi Bairagi,M,1991-08-15,Raw,Open,100.1,105,RJ,130,-140,-140,130,130,B
10,Dodda Dinesh Babu,M,1987-06-02,Raw,Open,101.3,105,AP,100,112.5,-120,112.5,112.5,B
11,Sushant Sing,M,1986-03-17,Raw,Open,97.6,105,GJ,80,82.5,92.5,92.5,92.5,B
1,Mahesh,M,1992-08-18,Raw,Open,105.4,120,HR,195,201,-203.5,201,201,B
2,Ranajit Paul,M,1997-08-03,Raw,Open,107.6,120,WB,187.5,197.5,-202.5,197.5,197.5,B
3,Anoop Kumar,M,1985-09-05,Raw,Open,113.5,120,KA,-180,190,-203.5,190,190,B
4,Somnath Koli,M,1991-11-27,Raw,Open,115.6,120,MH,177.5,-182.5,-182.5,177.5,177.5,B
5,Sudarshan Tiwari,M,1995-08-18,Raw,Open,118.9,120,MP,170,177.5,-192.5,177.5,177.5,B
6,Sairab Alam Butt,M,1997-09-06,Raw,Open,116.3,120,JK,165,-175,-175,165,165,B
7,Ajay Verma,M,1998-10-15,Raw,Open,115.6,120,HP,150,152.5,-155,152.5,152.5,B
8,Abhishek Dobhal,M,1991-02-10,Raw,Open,110.4,120,DL,-140,140,145,145,145,B
9,Viraj Vinayak Borkar,M,1991-03-22,Raw,Open,107.1,120,GA,125,-135,135,135,135,B
10,Haripal Singh,M,1995-08-15,Raw,Open,112.7,120,GA,130,-137.5,-140,130,130,B
1,Vickram Jeet Singh,M,1996-04-06,Raw,Open,158.2,120+,JK,200,-221,-221,200,200,B
2,Daman Deep Singh,M,1996-07-12,Raw,Open,130.6,120+,DL,-167.5,-167.5,167.5,167.5,167.5,B
3,Paritesh Pal,M,1999-09-13,Raw,Open,149.8,120+,MP,165,-175,-175,165,165,B
4,Ajay Yadav,M,1985-04-24,Raw,Open,146.4,120+,MH,137.5,145,-152.5,145,145,B
5,Gladsone Rakesh Sequeira,M,1987-08-25,Raw,Open,126.3,120+,KA,130,135,-145,135,135,B
DQ,Kuntal Das,M,1984-07-26,Raw,Open,124.6,120+,WB,-150,-150,-150,,,B
1,Jayveer Singh,M,2004-09-06,Raw,Sub-Juniors,53,53,UP,90,95,-98.5,95,95,B
2,Sai Manohar Mayekar,M,2004-08-16,Raw,Sub-Juniors,53,53,MH,87.5,90,-98.5,90,90,B
3,Sant Kumar,M,2006-09-18,Raw,Sub-Juniors,51.8,53,JK,77.5,82.5,-85,82.5,82.5,B
4,Monu Kumar,M,2006-02-07,Raw,Sub-Juniors,52.8,53,HR,82.5,-87.5,-87.5,82.5,82.5,B
5,Chirag Sharma,M,2005-01-10,Raw,Sub-Juniors,52.8,53,RJ,80,82.5,-90,82.5,82.5,B
6,Arjun Salian,M,2004-01-28,Raw,Sub-Juniors,53,53,KA,75,80,-85,80,80,B
7,Sujal Mehta,M,2004-06-21,Raw,Sub-Juniors,51.7,53,PY,75,-80,-82.5,75,75,B
8,Peeyush Acharya,M,2004-08-21,Raw,Sub-Juniors,52.3,53,RJ,75,-77.5,-77.5,75,75,B
9,Sudarshan Mandal,M,2004-07-29,Raw,Sub-Juniors,51.5,53,OR,60,62.5,-65,62.5,62.5,B
10,Nakul Kumar,M,,Raw,Sub-Juniors,49.3,53,CG,-50,55,-57.5,55,55,B
11,Ritvan Kavlekar,M,2007-07-17,Raw,Sub-Juniors,45.1,53,GA,25,35,-37.5,35,35,B
DQ,Deepanshu,M,2006-12-28,Raw,Sub-Juniors,50.1,53,HR,-40,-40,-40,,,B
DQ,Muhammed Ajmal H,M,2004-09-23,Raw,Sub-Juniors,52.8,53,KL,-80,-80,-85,,,B
1,Abhishek K A,M,2004-03-28,Raw,Sub-Juniors,57.3,59,KL,90,97.5,-100,97.5,97.5,B
2,Dhanush S,M,2004-07-30,Raw,Sub-Juniors,59,59,KA,80,90,-100,90,90,B
3,Nikhil Shah,M,2006-02-05,Raw,Sub-Juniors,57.6,59,CG,80,-85,-85,80,80,B
4,Abhishek,M,2005-02-28,Raw,Sub-Juniors,59,59,HR,80,-85,-85,80,80,B
5,Abhijit Das,M,2005-08-05,Raw,Sub-Juniors,59,59,WB,-80,80,-85,80,80,B
6,Kabilan S R,M,2011-01-06,Raw,Sub-Juniors,55.2,59,TN,70,77.5,-80,77.5,77.5,B
7,Siddhesh Tajne,M,2004-06-05,Raw,Sub-Juniors,58.3,59,MH,-75,77.5,-82.5,77.5,77.5,B
8,Sambhav Sharma,M,2005-01-10,Raw,Sub-Juniors,55.7,59,HP,60,-72.5,72.5,72.5,72.5,B
9,Aman #1,M,2006-11-11,Raw,Sub-Juniors,56.9,59,DL,70,-80,-80,70,70,B
10,Chandrakant Pirankar,M,2004-04-05,Raw,Sub-Juniors,59,59,GA,65,70,-72.5,70,70,B
11,Kasturi Prasanth,M,2005-08-01,Raw,Sub-Juniors,57.2,59,TE,50,60,-70,60,60,B
12,Anurag C Chunara,M,2005-07-28,Raw,Sub-Juniors,54.9,59,GJ,50,57.5,-60,57.5,57.5,B
DQ,Gulshan,M,2008-01-01,Raw,Sub-Juniors,59,59,UP,-20,-20,-65,,,B
1,Gourav #1,M,2004-08-29,Raw,Sub-Juniors,65.2,66,DL,107.5,112.5,115,115,115,B
2,Kayden Fernandes,M,2005-11-19,Raw,Sub-Juniors,64.8,66,GA,102.5,107.5,-110,107.5,107.5,B
3,Nitish Saha,M,2005-03-25,Raw,Sub-Juniors,64.9,66,CG,100,107.5,-110,107.5,107.5,B
4,Jeethesh A,M,2004-11-17,Raw,Sub-Juniors,65.5,66,KA,102.5,107.5,-110,107.5,107.5,B
5,Shashank Hiwale,M,2004-03-12,Raw,Sub-Juniors,66,66,MH,105,107.5,-112.5,107.5,107.5,B
6,Utkarsh Tripathi,M,2004-12-05,Raw,Sub-Juniors,60.8,66,UP,97.5,105,-110,105,105,B
7,Mohit Bhati,M,2005-11-08,Raw,Sub-Juniors,66,66,MP,100,-105,-110,100,100,B
8,Sahil Bairwa,M,2004-08-04,Raw,Sub-Juniors,66,66,RJ,97.5,-102.5,-102.5,97.5,97.5,B
9,Rakesh,M,2004-02-15,Raw,Sub-Juniors,65.4,66,RJ,90,-102.5,-102.5,90,90,B
10,Rehaan Shazaib,M,2007-04-07,Raw,Sub-Juniors,66,66,JK,-80,80,-87.5,80,80,B
11,S Kishore,M,2005-12-15,Raw,Sub-Juniors,65.3,66,AP,70,72.5,-80,72.5,72.5,B
1,Vikram Sriramulu,M,2004-04-15,Raw,Sub-Juniors,73.7,74,TN,120,131,-136,131,131,B
2,Devendra Nagda,M,2004-07-09,Raw,Sub-Juniors,72.7,74,RJ,125,130,-132.5,130,130,B
3,Suraj Singh,M,2006-04-12,Raw,Sub-Juniors,73.6,74,JK,130,-135,-135,130,130,B
4,Harsh Khanna,M,2005-06-17,Raw,Sub-Juniors,73.8,74,UP,120,-125,-132.5,120,120,B
5,Yash Kashyap,M,2005-05-28,Raw,Sub-Juniors,69.3,74,DL,105,112.5,-115,112.5,112.5,B
6,Tensubam Jestin,M,2004-05-01,Raw,Sub-Juniors,73.2,74,MN,105,110,-117.5,110,110,B
7,Ansh Edwin,M,2004-02-24,Raw,Sub-Juniors,73.5,74,MP,100,110,-112.5,110,110,B
8,Gourav #2,M,2004-09-14,Raw,Sub-Juniors,71,74,PY,95,100,105,105,105,B
9,Dhruv Sawant,M,2005-10-11,Raw,Sub-Juniors,74,74,MH,95,102.5,-105,102.5,102.5,B
10,Kathula Rohan,M,2005-02-18,Raw,Sub-Juniors,71.2,74,TE,80,90,97.5,97.5,97.5,B
11,Aldrin Robin,M,2004-06-18,Raw,Sub-Juniors,67.9,74,KL,-75,-85,85,85,85,B
12,Krishna Sai Metikala,M,2004-09-09,Raw,Sub-Juniors,73.2,74,AP,75,80,85,85,85,B
13,Vimal Prakash Verma,M,2004-06-21,Raw,Sub-Juniors,72.1,74,CG,-70,70,75,75,75,B
14,Jaden Pereira,M,2005-09-30,Raw,Sub-Juniors,68.9,74,GA,65,70,-77.5,70,70,B
DQ,Shivananda Wangkheimayum,M,2004-09-10,Raw,Sub-Juniors,71.1,74,MN,-120,-125,-125,,,B
DQ,Aljes Fernandes,M,2005-03-09,Raw,Sub-Juniors,72.3,74,GA,-85,-85,-85,,,B
1,Moinuddin Mohammed Ateequddin,M,2004-12-14,Raw,Sub-Juniors,82.9,83,MH,122.5,127.5,132.5,132.5,132.5,B
2,Anubhav Shukla,M,2004-09-22,Raw,Sub-Juniors,82.8,83,MP,125,-130,130,130,130,B
3,Sourabh Mal,M,2005-01-07,Raw,Sub-Juniors,81,83,RJ,115,120,-125,120,120,B
4,Aman Sharma,M,2005-10-17,Raw,Sub-Juniors,82.3,83,DL,110,-117.5,-125,110,110,B
5,Yadhunand M M,M,2004-07-23,Raw,Sub-Juniors,80.8,83,KL,95,100,-105,100,100,B
6,Nitin Sahu,M,2006-01-10,Raw,Sub-Juniors,77.8,83,CG,70,75,-80,75,75,B
7,Girreeswaran K S,M,2005-05-30,Raw,Sub-Juniors,82.7,83,TN,60,67.5,-70,67.5,67.5,B
8,Adhyan Asija,M,2006-02-14,Raw,Sub-Juniors,78.6,83,HR,50,57.5,-65,57.5,57.5,B
1,Ayush Kumar,M,2005-09-05,Raw,Sub-Juniors,90,93,OR,115,127.5,135,135,135,B
2,Aryan Chaudhary,M,2004-07-14,Raw,Sub-Juniors,91.2,93,UP,117.5,-122.5,127.5,127.5,127.5,B
3,Sourabh #1,M,2005-12-03,Raw,Sub-Juniors,92.6,93,HR,120,-127.5,127.5,127.5,127.5,B
4,Mihirkumar Tirgar,M,2005-05-27,Raw,Sub-Juniors,87.7,93,GJ,120,125,-135,125,125,B
5,Nikhil Gupta,M,2005-09-21,Raw,Sub-Juniors,88.7,93,MH,120,125,-132.5,125,125,B
6,Tribhuwan Das Dhurve,M,2004-01-25,Raw,Sub-Juniors,88.8,93,MP,-110,-117.5,117.5,117.5,117.5,B
7,Jasveer Singh Bhatia,M,2004-07-08,Raw,Sub-Juniors,88.9,93,MH,110,117.5,-120,117.5,117.5,B
8,Sahil Sofat,M,2006-07-29,Raw,Sub-Juniors,84.6,93,PY,105,112.5,-125,112.5,112.5,B
9,Ayush Raj,M,,Raw,Sub-Juniors,90.5,93,WB,107.5,-112.5,-112.5,107.5,107.5,B
10,Priyanshu Shukla,M,2006-11-14,Raw,Sub-Juniors,87,93,UP,97.5,-105,,97.5,97.5,B
11,V M Harish,M,2004-03-25,Raw,Sub-Juniors,87.1,93,TN,85,95,-100,95,95,B
12,Vipin Choudhary,M,2007-03-07,Raw,Sub-Juniors,88.5,93,RJ,70,72.5,75,75,75,B
1,Aryan,M,2004-11-04,Raw,Sub-Juniors,102.3,105,DL,135,140,145,145,145,B
2,Dheeraj,M,2004-05-21,Raw,Sub-Juniors,102.8,105,HR,140,-145,-146,140,140,B
3,G.arun Karthik,M,2004-05-19,Raw,Sub-Juniors,102.5,105,TN,120,127.5,-132.5,127.5,127.5,B
4,Nawaz Khan,M,2005-04-23,Raw,Sub-Juniors,93.1,105,MH,122.5,-127.5,-127.5,122.5,122.5,B
5,Paras,M,2004-04-05,Raw,Sub-Juniors,99.1,105,HP,90,95,-100,95,95,B
6,Akshat Bhatt,M,2006-03-29,Raw,Sub-Juniors,95.7,105,UP,85,90,-95,90,90,B
7,Piyush Bhardwaj,M,2004-10-13,Raw,Sub-Juniors,103.7,105,JK,80,-90,-90,80,80,B
1,Ravi,M,2004-03-02,Raw,Sub-Juniors,108.4,120,HR,160,-170,-172.5,160,160,B
2,Dinesh Kumar P,M,2004-04-17,Raw,Sub-Juniors,113.8,120,TN,140,-147.5,150,150,150,B
3,Monish Chakrawarty,M,2005-03-06,Raw,Sub-Juniors,113.2,120,MP,115,-120,120,120,120,B
4,Yash Rawat,M,2004-03-29,Raw,Sub-Juniors,116.8,120,MP,107.5,-112.5,112.5,112.5,112.5,B
5,Karan Singh Malik,M,2004-07-17,Raw,Sub-Juniors,108.6,120,DL,95,-105,-115,95,95,B
6,Aakash Bhardwaj,M,2007-01-16,Raw,Sub-Juniors,109.7,120,CG,-75,75,-80,75,75,B
7,Sahil,M,2008-11-05,Raw,Sub-Juniors,117.7,120,HP,60,-70,70,70,70,B
8,Aditya Agrawal,M,2006-07-05,Raw,Sub-Juniors,105.2,120,CG,65,-70,-70,65,65,B
9,Arijith A Menon,M,2005-09-25,Raw,Sub-Juniors,118.2,120,KL,60,-65,-65,60,60,B
DQ,Harshavardhan Rao S,M,2004-06-19,Raw,Sub-Juniors,112.1,120,KA,-90,-90,-90,,,B
1,Jitendra Sharma,M,2005-07-04,Raw,Sub-Juniors,121.2,120+,RJ,102.5,107.5,112.5,112.5,112.5,B
2,Melysunn Reevs,M,2004-09-28,Raw,Sub-Juniors,143.4,120+,GA,105,107.5,-115,107.5,107.5,B
3,Satyarth Prakash Upadhyaya,M,2004-11-23,Raw,Sub-Juniors,122.4,120+,BR,80,92.5,-100,92.5,92.5,B
4,Abhishek Baiju,M,2006-04-13,Raw,Sub-Juniors,139.2,120+,KL,65,72.5,-77.5,72.5,72.5,B
1,Kunal Subhash Pingale,M,2000-03-14,Raw,Juniors,51.9,53,MH,100,106,-111,106,106,B
2,Sonu Ram,M,2000-04-15,Raw,Juniors,52.2,53,HR,97.5,102.5,-107.5,102.5,102.5,B
3,Lakhan,M,2000-06-04,Raw,Juniors,53,53,JK,77.5,85,87.5,87.5,87.5,B
4,Devendra Prajapat,M,2003-04-30,Raw,Juniors,52.9,53,MP,85,-90,-90,85,85,B
5,Pauminthang Manthang,M,2000-04-05,Raw,Juniors,52.3,53,MN,80,-82.5,-85,80,80,B
6,Gourav Singh Solanki,M,2000-03-04,Raw,Juniors,52.3,53,RJ,65,70,-75,70,70,B
7,Rahul,M,2002-07-15,Raw,Juniors,52.4,53,HR,62.5,67.5,-70,67.5,67.5,B
8,Andrew Mylliem Umlong,M,2001-11-06,Raw,Juniors,50.5,53,ML,60,65,-75,65,65,B
9,Hrithik Naik,M,2000-11-05,Raw,Juniors,52.6,53,GA,65,-70,-70,65,65,B
10,Happy Raval,M,2001-10-11,Raw,Juniors,52.9,53,GJ,55,60,65,65,65,B
DQ,Akshaya Khann M M,M,2001-11-17,Raw,Juniors,53,53,TN,-70,-70,-70,,,B
1,Vaibhav Thorat,M,1999-06-18,Raw,Juniors,58.7,59,MH,125,132.5,135,135,135,B
2,Bhola,M,1999-05-05,Raw,Juniors,58.4,59,UP,117.5,-122.5,-122.5,117.5,117.5,B
3,Sonu Sharma,M,2003-01-26,Raw,Juniors,56.8,59,JH,112.5,-117.5,-117.5,112.5,112.5,B
4,Chetan Dogra,M,1999-11-21,Raw,Juniors,58.2,59,JK,100,107.5,-115,107.5,107.5,B
5,Soumen Senapati,M,2003-12-18,Raw,Juniors,59,59,OR,-97.5,-97.5,97.5,97.5,97.5,B
6,Shekh Wazzid Alli,M,2001-01-21,Raw,Juniors,58.3,59,OR,95,-100,-100,95,95,B
7,Raghunandan Kushwah,M,2003-01-01,Raw,Juniors,57.4,59,MP,90,-95,-95,90,90,B
8,Kamatam Ajay,M,2001-06-04,Raw,Juniors,57.7,59,TE,80,85,-87.5,85,85,B
9,Akshay Dhargalkar,M,2001-05-02,Raw,Juniors,59,59,GA,-80,-82.5,82.5,82.5,82.5,B
10,Kiran K S,M,2002-09-01,Raw,Juniors,56.9,59,KL,70,75,-77.5,75,75,B
1,Abhishek Kumar Singh,M,2000-11-09,Raw,Juniors,66,66,JH,120,-125,-125,120,120,B
2,Sameer Siddiqui,M,2001-01-21,Raw,Juniors,65.9,66,UP,107.5,112.5,117.5,117.5,117.5,B
3,Bhupenananda Padhi,M,2000-01-17,Raw,Juniors,64.5,66,OR,-105,110,115,115,115,B
4,Brahmadath Ramesh,M,2001-04-09,Raw,Juniors,64.2,66,KL,105,110,112.5,112.5,112.5,B
5,Shubam Kalotra,M,2000-05-03,Raw,Juniors,63.5,66,JK,110,-117.5,-117.5,110,110,B
6,Aum Bhalchandra Desai,M,2001-04-17,Raw,Juniors,65.1,66,MH,105,107.5,-112.5,107.5,107.5,B
7,Anish,M,1999-03-01,Raw,Juniors,66,66,DL,107.5,-112.5,-112.5,107.5,107.5,B
8,Saksham Tripathi,M,2001-09-11,Raw,Juniors,65.8,66,GJ,97.5,-102.5,-102.5,97.5,97.5,B
9,Yumlembam Robinson Singh,M,1999-03-01,Raw,Juniors,62.5,66,MN,80,-90,-90,80,80,B
10,B. Naveen Kumar,M,2001-11-30,Raw,Juniors,64.2,66,AP,70,77.5,-80,77.5,77.5,B
DQ,Raguraman C,M,2000-07-09,Raw,Juniors,65,66,TN,-97.5,-105,-105,,,B
1,Ravi Mali,M,2000-05-05,Raw,Juniors,72.5,74,MP,-137.5,147.5,151,151,151,B
2,Dhruv Shetty,M,2000-02-09,Raw,Juniors,73.1,74,KA,-135,135,147.5,147.5,147.5,B
3,Mohamed Aslam,M,2000-11-28,Raw,Juniors,73.9,74,TN,-130,-130,130,130,130,B
4,Jey Kumar,M,1999-04-11,Raw,Juniors,73.3,74,TN,115,120,-122.5,120,120,B
5,Rajesh Tikone,M,2001-04-04,Raw,Juniors,72.7,74,MH,105,112.5,-120,112.5,112.5,B
6,Gaurav Palaria,M,2000-08-15,Raw,Juniors,73.3,74,RJ,110,-115,-115,110,110,B
7,Arkidonlang Nongkseh,M,2003-08-13,Raw,Juniors,72,74,ML,100,102.5,-105,102.5,102.5,B
8,Chandan Kumar Shaw,M,2000-07-08,Raw,Juniors,73.3,74,WB,80,90,-97.5,90,90,B
9,Vivek Shah,M,2002-04-07,Raw,Juniors,67.4,74,CG,70,72.5,77.5,77.5,77.5,B
10,Nikhil Chouhan,M,2001-05-10,Raw,Juniors,71.6,74,HP,-57.5,57.5,-62.5,57.5,57.5,B
DQ,Raja Guru B N M,M,2002-09-08,Raw,Juniors,72.9,74,KL,-122.5,-122.5,-122.5,,,B
DQ,Shivam Tiwari,M,2002-12-10,Raw,Juniors,73.5,74,MP,-115,-125,-125,,,B
1,Nitesh Rawat,M,2001-10-10,Raw,Juniors,83,83,RJ,152.5,158.5,162.5,162.5,162.5,B
2,Sidhant Thakur,M,2000-03-27,Raw,Juniors,82.1,83,HP,145,150,-159.5,150,150,B
3,Anmol Mehra,M,1999-06-26,Raw,Juniors,78.9,83,PY,135,137.5,-152.5,137.5,137.5,B
4,Venkatesh,M,2001-11-02,Raw,Juniors,83,83,HR,130,137.5,-142.5,137.5,137.5,B
5,Darshan Murlidharan,M,,Raw,Juniors,81.7,83,KL,132.5,135,-142.5,135,135,B
6,Saurabh Kallole,M,1999-02-13,Raw,Juniors,77.8,83,MH,120,132.5,-142.5,132.5,132.5,B
7,Abdul Momin Dar,M,2002-05-02,Raw,Juniors,77.9,83,JK,130,-135,-137.5,130,130,B
8,Yogesh,M,2002-09-06,Raw,Juniors,82.7,83,DL,122.5,127.5,-140,127.5,127.5,B
9,Shreeyash Shirsat,M,2000-03-01,Raw,Juniors,81.6,83,GA,102.5,110,-112.5,110,110,B
10,Madarasu Reddy Naresh,M,2000-12-03,Raw,Juniors,81.1,83,AP,100,105,-107.5,105,105,B
11,Shubham Tiwari Tiwari,M,2003-10-07,Raw,Juniors,83,83,CG,100,-105,-170,100,100,B
12,Sachin Bammanahalli,M,2001-05-03,Raw,Juniors,80.1,83,GA,80,87.5,95,95,95,B
13,Mohammed Faraz,M,1999-06-23,Raw,Juniors,82.9,83,TE,80,82.5,-100,82.5,82.5,B
14,Pottekula Dhanesh,M,2002-06-25,Raw,Juniors,78.7,83,AP,75,80,-82.5,80,80,B
DQ,Aashutosh Gupta,M,1999-11-26,Raw,Juniors,82.4,83,UP,-120,-120,-120,,,B
1,Tarandeep Singh,M,2002-03-08,Raw,Juniors,90.5,93,JK,150,155,160,160,160,B
2,Pratik Shukla,M,2000-06-06,Raw,Juniors,87.8,93,MP,-152.5,152.5,-157.5,152.5,152.5,B
3,Anurag Magotra,M,2000-03-06,Raw,Juniors,87.2,93,JK,140,147.5,150,150,150,B
4,Shubham Mahajan,M,2002-04-16,Raw,Juniors,88,93,MH,140,142.5,150,150,150,B
5,Aman Swami,M,2002-07-04,Raw,Juniors,91,93,HR,142.5,-145,-152.5,142.5,142.5,B
6,Rakshith V,M,2002-12-25,Raw,Juniors,91.7,93,KA,130,142.5,-155,142.5,142.5,B
7,Ashish Yadav,M,2000-02-09,Raw,Juniors,88.5,93,MP,132.5,-140,-140,132.5,132.5,B
8,T S Vishnu,M,2003-04-20,Raw,Juniors,89.3,93,KL,115,125,-130,125,125,B
9,Aman #2,M,2001-09-08,Raw,Juniors,92.8,93,DL,120,-125,125,125,125,B
10,Arpit Sharma,M,1999-06-19,Raw,Juniors,86.3,93,HP,115,117.5,-130,117.5,117.5,B
11,Mahesh Pagadala,M,1999-09-09,Raw,Juniors,91.51,93,GA,-105,105,-115,105,105,B
12,Reece Estrocio,M,2002-06-19,Raw,Juniors,92.3,93,GA,100,-110,-110,100,100,B
DQ,Nitin Yadav,M,2002-04-28,Raw,Juniors,88.4,93,DL,,,,,,B
1,Sourabh #2,M,2003-09-02,Raw,Juniors,100.3,105,HR,150,181,-187.5,181,181,B
2,Arnav Srivastava,M,2000-07-21,Raw,Juniors,103.3,105,BR,-135,142.5,147.5,147.5,147.5,B
3,Mohit Patil,M,,Raw,Juniors,102.8,105,MP,130,-140,145,145,145,B
4,Aarohan Mandal,M,2002-01-26,Raw,Juniors,99.7,105,JH,135,140,-145,140,140,B
5,Siddhant Wankhede,M,2002-07-19,Raw,Juniors,104.4,105,MH,120,-127.5,127.5,127.5,127.5,B
6,Sk Parvez Musaraf,M,2002-01-01,Raw,Juniors,99.8,105,OR,117.5,125,-135,125,125,B
7,Varshith Rao,M,2002-02-25,Raw,Juniors,103,105,KA,110,125,-132.5,125,125,B
8,Godwin Kg,M,2000-09-19,Raw,Juniors,97.2,105,KL,100,110,120,120,120,B
9,Suraj Gaude,M,1999-12-31,Raw,Juniors,93.1,105,GA,100,-117.5,117.5,117.5,117.5,B
10,Thaneshwar Dhiwar,M,2001-03-25,Raw,Juniors,97.8,105,CG,-105,105,-120,105,105,B
DQ,Harsh Verma,M,2001-12-31,Raw,Juniors,94.3,105,DL,-130,-130,-130,,,B
DQ,Banua Vidhant,M,2001-10-10,Raw,Juniors,99.5,105,JK,-140,-140,-140,,,B
DQ,Rituraj Singh,M,2002-09-05,Raw,Juniors,102.6,105,UP,-137.5,-137.5,-137.5,,,B
1,Saurav Bhardwaj,M,1999-08-22,Raw,Juniors,113.9,120,DL,150,160,167.5,167.5,167.5,B
2,Harsh Singh,M,1999-03-27,Raw,Juniors,105.8,120,DL,137.5,140,155,155,155,B
3,Md. Anas Haque,M,2002-10-05,Raw,Juniors,109,120,BR,120,127.5,-132.5,127.5,127.5,B
1,Thinakaran K,M,2002-04-28,Raw,Juniors,129.7,120+,TN,130,140,-142.5,140,140,B
2,Rishab Rajesh Rao,M,1999-03-02,Raw,Juniors,120.1,120+,KA,110,130,-140,130,130,B
3,Chaitanya Shastri,M,1999-05-07,Raw,Juniors,131.5,120+,MH,80,87.5,90,90,90,B
4,K R Ram Sidharth,M,2002-09-07,Raw,Juniors,121.4,120+,KL,70,77.5,-90,77.5,77.5,B
1,Nitin Shejwal,M,1978-08-08,Raw,Masters 1,56.5,59,MH,107.5,112.5,120,120,120,B
2,Ranjit Tandi,M,1979-01-01,Raw,Masters 1,56.8,59,CG,80,85,87.5,87.5,87.5,B
3,Vijay Chatre,M,1980-08-30,Raw,Masters 1,57.3,59,MP,65,70,77.5,77.5,77.5,B
4,Gogle Sunil,M,1979-11-07,Raw,Masters 1,57.4,59,TE,60,70,77.5,77.5,77.5,B
5,Jai Prakash Goyal,M,1980-06-10,Raw,Masters 1,57.3,59,RJ,65,67.5,-72.5,67.5,67.5,B
1,Deepak Tiwari,M,1978-10-30,Raw,Masters 1,62.9,66,MP,112.5,-115,-115,112.5,112.5,B
2,Rakesh Mallik,M,1982-05-01,Raw,Masters 1,65.2,66,CG,102.5,107.5,-110,107.5,107.5,B
3,Arvind Shukla,M,1974-05-22,Raw,Masters 1,65.4,66,MP,-100,100,105,105,105,B
4,Rajesh M K,M,1978-05-03,Raw,Masters 1,65.1,66,KL,97.5,-100,-102.5,97.5,97.5,B
5,Satish Tari,M,1982-01-15,Raw,Masters 1,61.2,66,GA,90,95,-97.5,95,95,B
6,Sunil Sapkal,M,1981-09-28,Raw,Masters 1,65.9,66,MH,90,95,-97.5,95,95,B
7,Chandresh Chunara,M,1979-03-09,Raw,Masters 1,65.5,66,GJ,90,-95,-97.5,90,90,B
8,Vasudevan Angusamy,M,1982-02-09,Raw,Masters 1,61.8,66,TN,60,,,60,60,B
1,Dinesh Pawar,M,1980-05-05,Raw,Masters 1,72.6,74,MH,125,130,135,135,135,B
2,S. Tendelu,M,1976-12-28,Raw,Masters 1,73.5,74,MP,135,-140,-140,135,135,B
3,Sudip Chandra Biswas,M,1979-03-09,Raw,Masters 1,73,74,CG,115,-120,-125,115,115,B
4,Santosh Shetty,M,1979-06-01,Raw,Masters 1,72.8,74,KA,-100,100,-115,100,100,B
5,Anil Kumar,M,1974-07-08,Raw,Masters 1,73.7,74,PY,80,85,90,90,90,B
6,Arvind Verma,M,1978-03-06,Raw,Masters 1,71.3,74,UP,60,65,70,70,70,B
1,Harmesh Lal,M,1978-04-27,Raw,Masters 1,82.6,83,PY,165,-172.5,172.5,172.5,172.5,B
2,Sohan Rana,M,1975-06-17,Raw,Masters 1,78.8,83,MP,145,150,155,155,155,B
3,Prem Kumar,M,1976-05-15,Raw,Masters 1,83,83,DL,-135,140,-152.5,140,140,B
4,Satvir Singh,M,1978-03-19,Raw,Masters 1,76.55,83,HP,120,127.5,-132.5,127.5,127.5,B
5,Yoginder,M,1982-10-10,Raw,Masters 1,80.3,83,DL,125,-132.5,-132.5,125,125,B
6,Mukesh J Girap,M,1976-04-01,Raw,Masters 1,82.2,83,GA,-122.5,-122.5,122.5,122.5,122.5,B
7,Sachin Kochrekar,M,1974-01-22,Raw,Masters 1,77.6,83,MH,120,-132.5,-135,120,120,B
8,Bhuvnendra,M,1982-01-01,Raw,Masters 1,79.2,83,UP,-115,120,-132.5,120,120,B
9,Deepak Kumar Sharma,M,1975-07-22,Raw,Masters 1,82.4,83,RJ,102.5,107.5,-112.5,107.5,107.5,B
10,Varindar Kumar,M,1973-07-18,Raw,Masters 1,77.9,83,PY,102.5,105,-117.5,105,105,B
11,Dipak Kumar Gupta,M,1980-10-02,Raw,Masters 1,74.7,83,JH,95,100,-102.5,100,100,B
DQ,Khathri Jogender,M,1981-11-19,Raw,Masters 1,76.4,83,TE,-105,-105,-115,,,B
1,Shriom,M,1981-05-20,Raw,Masters 1,92.1,93,DL,180,-185,185,185,185,B
2,Rajbir,M,1979-08-31,Raw,Masters 1,91.8,93,HR,162.5,167.5,175,175,175,B
3,Ajinath Shekade,M,1979-11-03,Raw,Masters 1,92.3,93,MH,150,-155,-155,150,150,B
4,Satyendra Nath Sharma,M,1982-06-25,Raw,Masters 1,90,93,UP,140,145,-150,145,145,B
5,Golden Rathore,M,1981-07-13,Raw,Masters 1,90.5,93,DL,140,-147.5,-150,140,140,B
6,Sanjay Pandit,M,1980-12-11,Raw,Masters 1,91.4,93,RJ,122.5,132.5,-135,132.5,132.5,B
7,Mukesh Kumawat,M,1981-09-10,Raw,Masters 1,91.9,93,RJ,125,130,-135,130,130,B
8,Sakeer T V,M,1973-11-10,Raw,Masters 1,84,93,KL,115,122.5,127.5,127.5,127.5,B
9,Parvez Mohammad,M,1979-12-18,Raw,Masters 1,90.2,93,MP,122.5,125,127.5,127.5,127.5,B
10,Naresh Kumar,M,1981-03-07,Raw,Masters 1,89.4,93,HR,117.5,122.5,-127.5,122.5,122.5,B
11,S. Shanmugam,M,1982-06-10,Raw,Masters 1,92.9,93,TN,112.5,120,-125,120,120,B
1,Satyendra Singh Rathore,M,1975-07-15,Raw,Masters 1,104,105,RJ,155,160,165,165,165,B
2,Umesh Khari,M,1982-02-02,Raw,Masters 1,94.4,105,DL,140,152.5,-157.5,152.5,152.5,B
3,Gurpreet Singh,M,1979-03-14,Raw,Masters 1,104,105,PY,145,152.5,-157.5,152.5,152.5,B
4,Ved Prakash,M,1980-03-02,Raw,Masters 1,103.8,105,MP,145,150,-157.5,150,150,B
5,Pradeep Jagade,M,1978-05-23,Raw,Masters 1,101.5,105,MH,140,147.5,-152.5,147.5,147.5,B
6,Rajendra Prajapti,M,1980-12-19,Raw,Masters 1,96.6,105,MP,130,140,-145,140,140,B
7,Umesh Raina,M,1979-03-25,Raw,Masters 1,93.4,105,JK,135,-142.5,-142.5,135,135,B
8,Rajendra Singh,M,1982-11-22,Raw,Masters 1,101.6,105,UP,115,122.5,130,130,130,B
DQ,Ankush Gadhave,M,1980-09-27,Raw,Masters 1,95.1,105,MH,-167.5,-167.5,-167.5,,,B
1,Jitender,M,1981-01-10,Raw,Masters 1,115.3,120,HR,190,-201,-201,190,190,B
2,Jagtap Prashant,M,1975-02-15,Raw,Masters 1,105.8,120,MH,127.5,135,-137.5,135,135,B
3,Vinod Kumar Gotherwal,M,1976-12-25,Raw,Masters 1,105.3,120,RJ,110,120,127.5,127.5,127.5,B
4,Manish Gupta,M,1979-05-05,Raw,Masters 1,106.2,120,GJ,105,115,-127.5,115,115,B
5,Dhulipalla Ramu,M,1975-05-12,Raw,Masters 1,117.5,120,AP,90,-95,,90,90,B
1,Rajesh Potdar,M,1972-09-16,Raw,Masters 2,58.9,59,MH,85,90,-92.5,90,90,B
2,Kiran Kumar Kangjam,M,1963-03-01,Raw,Masters 2,47.1,59,MN,45,-55,-55,45,45,B
1,Binod-Kumar Patra,M,1969-11-23,Raw,Masters 2,64,66,JH,120,125,-130,125,125,B
2,Sanjay Jagdish Sharma,M,1972-09-19,Raw,Masters 2,64.5,66,MH,80,87.5,92.5,92.5,92.5,B
3,Eshwar N,M,1970-10-05,Raw,Masters 2,63.4,66,KA,70,80,82.5,82.5,82.5,B
4,S.s. Kadam,M,1970-08-25,Raw,Masters 2,65.5,66,MP,75,-77.5,-77.5,75,75,B
1,Manoj Bohit,M,1968-01-01,Raw,Masters 2,71.3,74,MP,105,110,-115,110,110,B
2,Sankarapandiyan G,M,1967-04-08,Raw,Masters 2,72.5,74,TN,97.5,102.5,107.5,107.5,107.5,B
3,Jagannath P,M,1968-06-15,Raw,Masters 2,72.2,74,KL,100,105,-110,105,105,B
4,Ashok Mate,M,1972-10-05,Raw,Masters 2,73.5,74,MH,92.5,97.5,-105,97.5,97.5,B
5,Satyavan Naik,M,1968-03-03,Raw,Masters 2,71.9,74,GA,-92.5,92.5,-105,92.5,92.5,B
6,Sheikh Mukhtar,M,1970-05-25,Raw,Masters 2,73,74,CG,90,92.5,-97.5,92.5,92.5,B
7,M V Krishnaji,M,1969-03-06,Raw,Masters 2,72.2,74,TE,80,85,90,90,90,B
8,Suresh M J,M,1969-09-01,Raw,Masters 2,71.6,74,KA,75,85,-95,85,85,B
9,Thakur Sunil Dutt Singh,M,1966-03-03,Raw,Masters 2,71,74,TE,55,-65,-65,55,55,B
1,Vincent Prakash Carlo,M,1972-01-26,Raw,Masters 2,83,83,KA,135,-142.5,142.5,142.5,142.5,B
2,Hem Singh Baghela,M,1972-09-02,Raw,Masters 2,81.2,83,RJ,120,127.5,135,135,135,B
3,Pyare Lal,M,1966-08-11,Raw,Masters 2,78.2,83,DL,110,122.5,127.5,127.5,127.5,B
4,Navnath Shinde,M,1970-10-14,Raw,Masters 2,81.6,83,MH,115,120,-125,120,120,B
5,Mahendra Kumar,M,1966-01-01,Raw,Masters 2,82.6,83,UP,105,112.5,-120,112.5,112.5,B
6,Surinder Singh Baidwan,M,1970-07-01,Raw,Masters 2,83,83,CH,107.5,112.5,-115,112.5,112.5,B
7,Tanveer Khan,M,1972-07-25,Raw,Masters 2,82.5,83,MP,-107.5,107.5,-125,107.5,107.5,B
8,Sanjay Utwal,M,1968-01-01,Raw,Masters 2,82.5,83,MP,-90,90,-100,90,90,B
9,Nikhil Dharamsi Maheshwari,M,1967-03-08,Raw,Masters 2,83,83,GJ,-90,90,-110,90,90,B
DQ,Virendra Kumar Sharma,M,1970-01-01,Raw,Masters 2,82.3,83,RJ,-85,-85,-85,,,B
1,Nandakishor Madhav Shinde,M,1969-07-03,Raw,Masters 2,84.3,93,MH,135,-140,-140,135,135,B
2,Subhash Deshmukh,M,1966-11-10,Raw,Masters 2,93,93,MH,122.5,127.5,135,135,135,B
3,Didar Singh,M,1968-06-22,Raw,Masters 2,91.2,93,CH,125,-130,132.5,132.5,132.5,B
4,Devendrappa H,M,1968-03-09,Raw,Masters 2,92.6,93,KA,120,132.5,-135,132.5,132.5,B
5,Drbal Govind Tiwari,M,1972-10-29,Raw,Masters 2,90.5,93,AP,122.5,127.5,-135,127.5,127.5,B
6,Rajesh Parmar,M,1970-11-28,Raw,Masters 2,91,93,MP,87.5,90,95,95,95,B
1,Shailendra Edwin,M,1969-09-16,Raw,Masters 2,97.1,105,MP,135,140,,140,140,B
2,Ramaswamy Ganesan,M,1968-03-02,Raw,Masters 2,99.8,105,GA,120,127.5,-132.5,127.5,127.5,B
3,Ghanshyam Pawar,M,1970-01-11,Raw,Masters 2,94.7,105,MH,120,125,-130,125,125,B
4,Gulab Prasad Mahobia,M,1964-02-03,Raw,Masters 2,95.2,105,MP,100,-110,-110,100,100,B
1,Jaswinder Kumar,M,1968-03-27,Raw,Masters 2,105.5,120,PY,130,140,-152,140,140,B
1,Deepak Sharma,M,1971-09-30,Raw,Masters 2,129.8,120+,MH,70,75,-80,75,75,B
1,Lakshmanan D,M,1958-08-28,Raw,Masters 3,58.3,59,TN,80,85,90,90,90,B
1,Arun Sharma,M,1962-10-02,Raw,Masters 3,63.9,66,DL,90,101,-105,101,101,B
2,Jagdish Junaniya,M,1961-05-07,Raw,Masters 3,63.9,66,MP,70,75,77.5,77.5,77.5,B
3,Hardeep Singh,M,1956-10-06,Raw,Masters 3,65.6,66,JH,67.5,72.5,-77.5,72.5,72.5,B
1,Jyotirmoy Barman,M,1956-12-30,Raw,Masters 3,73.3,74,WB,90,97.5,-108.5,97.5,97.5,B
2,Suhas Vengurlekar,M,1960-09-06,Raw,Masters 3,69.4,74,MH,75,80,82.5,82.5,82.5,B
3,Vinod Satav,M,1960-06-02,Raw,Masters 3,74,74,MH,82.5,-90,-90,82.5,82.5,B
1,Inderjit Singh,M,1954-02-07,Raw,Masters 3,81.5,83,JH,102.5,110,-115,110,110,B
2,Kantilal Takale,M,1959-05-01,Raw,Masters 3,78.3,83,MH,85,95,97.5,97.5,97.5,B
3,Sundeep Deora,M,1962-07-02,Raw,Masters 3,80,83,RJ,92.5,95,,95,95,B
4,C K Sadanandan,M,1962-05-15,Raw,Masters 3,74.5,83,KL,85,90,-97.5,90,90,B
5,Om Singh Chouhan,M,1954-06-10,Raw,Masters 3,79.8,83,RJ,80,-85,-85,80,80,B
6,Mathus Joseph,M,1954-12-10,Raw,Masters 3,77.7,83,MP,-42.5,-42.5,42.5,42.5,42.5,B
1,Sanjiv Razdan,M,1960-11-13,Raw,Masters 3,90,93,MP,107.5,117.5,122.5,122.5,122.5,B
2,Raj Kumar Khatana,M,1959-01-01,Raw,Masters 3,90.8,93,HR,95,-100,105,105,105,B
3,Deepak Haldar,M,1958-07-20,Raw,Masters 3,83.1,93,UP,85,92.5,,92.5,92.5,B
4,Salim Sayyaed,M,1955-05-20,Raw,Masters 3,91.5,93,MH,60,65,-70,65,65,B
5,Rajiv Chopra,M,1960-08-17,Raw,Masters 3,85.2,93,DL,40,-47.5,47.5,47.5,47.5,B
1,Gunasekaran P,M,1959-04-07,Raw,Masters 3,93.1,105,TN,-100,105,111,111,111,B
2,Joydeb Ghosh,M,1957-09-02,Raw,Masters 3,98.3,105,WB,97.5,102.5,105,105,105,B
3,Shyam Dinanath Sahini,M,1959-11-19,Raw,Masters 3,94.6,105,MH,90,100,-102.5,100,100,B
4,Kalakuri Satyanarayana,M,1961-05-15,Raw,Masters 3,102.1,105,TE,-90,90,-105,90,90,B
5,Nandkishor Ramdin,M,1955-06-01,Raw,Masters 3,100.7,105,MH,55,57.5,-60,57.5,57.5,B
1,Gautam Banerjee,M,1961-07-04,Raw,Masters 3,144.9,120+,WB,82.5,-102.5,-102.5,82.5,82.5,B
1,Sreenivasan K C,M,1950-08-28,Raw,Masters 4,56.3,59,KL,67.5,72.5,78.5,78.5,78.5,B
2,Anil Kumthekar,M,1941-06-26,Raw,Masters 4,53.6,59,MH,45,50,55,55,55,B
1,Vijay Sakharam Gandhi,M,1948-09-02,Raw,Masters 4,63.7,66,MH,-50,50,-60,50,50,B
1,Dr. Arvind Kumar Mourya,M,1948-07-01,Raw,Masters 4,68.5,74,MP,60,65,-67.5,65,65,B
1,Mahamalmad Abas,M,1947-05-10,Raw,Masters 4,75.3,83,TE,70,77.5,-81,77.5,77.5,B
2,Nirmal Kumar Saha,M,1948-03-19,Raw,Masters 4,75.5,83,WB,60,67.5,72.5,72.5,72.5,B
1,Vishnu Sargar,M,1952-06-01,Raw,Masters 4,87.1,93,MH,60,65,70,70,70,B
2,Suresh Y Bansode,M,1952-04-01,Raw,Masters 4,83.1,93,MH,-60,60,-65,60,60,B
1,G Ram Mohan Rao,M,1952-08-01,Raw,Masters 4,96,105,TE,40,50,60,60,60,B
1,Savita Kumari,F,1983-12-12,Raw,Open,46.8,47,DL,72.5,77.5,-80,77.5,77.5,B
2,Tanvi Chandrashekhar Tapadia,F,1987-07-31,Raw,Open,47,47,MH,50,52.5,55,55,55,B
3,Shikha Garhewal,F,1983-11-21,Raw,Open,45.8,47,MP,45,50,-52.5,50,50,B
4,Neetu Khatri,F,1995-09-29,Raw,Open,45.8,47,RJ,45,47.5,-50,47.5,47.5,B
5,Puneet Kour,F,1996-06-01,Raw,Open,46.2,47,JK,42.5,-45,-52.5,42.5,42.5,B
1,Soni Gorelal Dhiraj,F,1996-10-21,Raw,Open,50.7,52,MH,52.5,55,60,60,60,B
2,Diksha Kapoor,F,1997-11-23,Raw,Open,51,52,JK,52.5,-57.5,57.5,57.5,57.5,B
3,Manisha Sharma,F,1994-08-01,Raw,Open,52,52,UP,45,52.5,-55,52.5,52.5,B
1,Amita Devi,F,1986-04-26,Raw,Open,56.4,57,JK,77.5,82.5,-86,82.5,82.5,B
2,Shraddha S Naik,F,1997-12-01,Raw,Open,56,57,KA,75,80,-86,80,80,B
3,Himanshi,F,1998-01-14,Raw,Open,54.3,57,DL,55,62.5,65,65,65,B
4,Jyoti Singh,F,1997-01-01,Raw,Open,57,57,UP,65,-67.5,-67.5,65,65,B
5,Latisha Khedkar,F,1998-08-13,Raw,Open,55.8,57,GA,50,-55,-55,50,50,B
6,Bashisha Nongsteng,F,1996-12-12,Raw,Open,55.8,57,ML,45,47.5,-50,47.5,47.5,B
7,Vaishnavi Ugadekar,F,1997-05-26,Raw,Open,54.8,57,GA,40,42.5,-50,42.5,42.5,B
1,Sarita Sarva,F,1990-04-02,Raw,Open,61.3,63,RJ,-62.5,65,-67.5,65,65,B
2,Rani Kumari,F,1994-04-06,Raw,Open,61.6,63,JH,65,-67.5,-67.5,65,65,B
3,Krishna,F,1995-03-01,Raw,Open,61.9,63,HR,65,-67.5,-67.5,65,65,B
4,Puja Kumari,F,1985-04-02,Raw,Open,63,63,MP,57.5,-62.5,-62.5,57.5,57.5,B
1,Rani Shirsat,F,1991-09-22,Raw,Open,68,69,MH,77.5,85,91,91,91,B
2,Seema Verma,F,1966-06-01,Raw,Open,66.5,69,MP,82.5,87.5,90,90,90,B
3,Anita Basarkatti,F,1988-05-12,Raw,Open,68.3,69,GA,47.5,52.5,55,55,55,B
4,Parchuru Kumari,F,1995-06-02,Raw,Open,68.8,69,AP,40,-47.5,-52.5,40,40,B
1,Susheela,F,1988-03-05,Raw,Open,74.5,76,RJ,72.5,77.5,82.5,82.5,82.5,B
2,Manisha,F,1993-10-15,Raw,Open,76,76,HR,75,77.5,-82.5,77.5,77.5,B
3,Zainab Lakdawala,F,1988-02-10,Raw,Open,73.5,76,MH,75,-77.5,-80,75,75,B
4,Bithika Mondal,F,1992-09-12,Raw,Open,70.8,76,WB,67.5,72.5,-77.5,72.5,72.5,B
5,Vijaya Vani,F,1983-06-05,Raw,Open,74,76,KA,60,65,-75,65,65,B
6,Nidhi Vanza,F,1994-07-18,Raw,Open,72,76,GJ,40,42.5,45,45,45,B
1,Shrishit Chouhan,F,1995-01-04,Raw,Open,80.8,84,RJ,67.5,75,80,80,80,B
2,Deepmala Yadav,F,1986-10-26,Raw,Open,84,84,MP,70,75,-82.5,75,75,B
3,Surbhi Vaishnav,F,1998-08-28,Raw,Open,84,84,RJ,52.5,55,-60,55,55,B
4,Saili Naik,F,1992-12-03,Raw,Open,81.5,84,GA,37.5,-42.5,42.5,42.5,42.5,B
1,Shrutika Raut,F,1996-09-13,Raw,Open,105.6,84+,MH,85,90,-95,90,90,B
2,Farheen Dehalvi,F,1983-04-03,Raw,Open,86.8,84+,MP,-85,85,-92.5,85,85,B
3,Nagma Ara Begam,F,1990-04-29,Raw,Open,99.9,84+,OR,72.5,75,80,80,80,B
4,Manisha Prajapat,F,1992-06-03,Raw,Open,93.1,84+,RJ,52.5,57.5,62.5,62.5,62.5,B
5,Muthukumari Thavasimuthu,F,1983-02-26,Raw,Open,100.1,84+,TN,50,57.5,-62.5,57.5,57.5,B
6,Vaishali V Nerkar,F,1987-06-05,Raw,Open,85.2,84+,GA,47.5,50.5,-52.5,50.5,50.5,B
7,Hemlata Jangir,F,1984-06-04,Raw,Open,96.7,84+,DL,50,-60,-60,50,50,B
1,Rizwana Parveen,F,2006-08-04,Raw,Sub-Juniors,41.4,43,TN,-45,45,47.5,47.5,47.5,B
2,Durga Kumawat,F,2004-03-04,Raw,Sub-Juniors,43,43,RJ,35,40,-45,40,40,B
3,Komal Keshav Pawar,F,2004-05-23,Raw,Sub-Juniors,39.9,43,MH,35,-37.5,-37.5,35,35,B
4,Pratyusha,F,2010-02-12,Raw,Sub-Juniors,40,43,UP,25,30,32.5,32.5,32.5,B
5,Naila Najoob,F,2005-02-05,Raw,Sub-Juniors,42.6,43,KL,27.5,-32.5,-32.5,27.5,27.5,B
1,Nadini Uppar,F,2007-06-27,Raw,Sub-Juniors,47,47,MH,40,45,-53.5,45,45,B
2,Priyanshi Rajput,F,2005-03-27,Raw,Sub-Juniors,45.3,47,RJ,37.5,40,42.5,42.5,42.5,B
3,Arshdeep Goomer,F,2005-09-23,Raw,Sub-Juniors,46.5,47,MP,37.5,40,-42.5,40,40,B
4,Anugraha Mary A.s,F,2006-06-13,Raw,Sub-Juniors,46.6,47,KL,32.5,37.5,-42.5,37.5,37.5,B
1,Jasmine P,F,2006-06-15,Raw,Sub-Juniors,48.9,52,TN,55,58.5,-60,58.5,58.5,B
2,Deepana S R,F,2009-06-15,Raw,Sub-Juniors,49.6,52,TN,-50,50,-52.5,50,50,B
3,Khushi Badela,F,2008-03-04,Raw,Sub-Juniors,49.9,52,MH,37.5,40,42.5,42.5,42.5,B
4,Mansi Sharma,F,2004-11-08,Raw,Sub-Juniors,47.1,52,RJ,37.5,40,-42.5,40,40,B
5,Ardra S,F,2006-05-08,Raw,Sub-Juniors,51.2,52,KL,30,-37.5,-37.5,30,30,B
1,Ritu Singh,F,2005-08-06,Raw,Sub-Juniors,57,57,JH,55,60,-62.5,60,60,B
2,Harshita Tiwari,F,2006-09-18,Raw,Sub-Juniors,57,57,AP,42.5,47.5,50,50,50,B
3,Arica Mukhim,F,2008-08-26,Raw,Sub-Juniors,55.6,57,ML,45,-47.5,-47.5,45,45,B
4,Divya Suroshi,F,2009-03-31,Raw,Sub-Juniors,54.7,57,MH,42.5,-47.5,-47.5,42.5,42.5,B
5,Neha,F,2005-04-02,Raw,Sub-Juniors,57,57,DL,40,-45,-45,40,40,B
6,Muskan,F,2006-06-10,Raw,Sub-Juniors,55,57,UP,30,35,-37.5,35,35,B
7,Grace Jenit Joy,F,2006-11-08,Raw,Sub-Juniors,54.4,57,KL,25,-30,30,30,30,B
1,Muskan Sheikh,F,2004-05-12,Raw,Sub-Juniors,61.9,63,MP,55,60,62.5,62.5,62.5,B
2,Ankita Singh,F,2005-07-15,Raw,Sub-Juniors,62.6,63,UP,-55,55,-62.5,55,55,B
3,Ruthra R,F,2004-02-12,Raw,Sub-Juniors,63,63,TN,50,55,-57.5,55,55,B
4,Sakshi Rohidas Mhalaskar,F,2004-12-20,Raw,Sub-Juniors,60.5,63,MH,45,50,-55,50,50,B
5,Sarjubala Sagolshem,F,2005-03-05,Raw,Sub-Juniors,62.7,63,MN,35,40,-42.5,40,40,B
6,Avenin D Cruz,F,2007-07-18,Raw,Sub-Juniors,62.7,63,KL,35,-40,-40,35,35,B
1,Rachna,F,2004-09-29,Raw,Sub-Juniors,65.3,69,HR,52.5,-55,55,55,55,B
2,Prajaktha Gadhave,F,2009-01-08,Raw,Sub-Juniors,67.3,69,MH,55,-57.5,-57.5,55,55,B
3,Sharannya Kengar,F,2008-10-13,Raw,Sub-Juniors,68.5,69,MH,42.5,-47.5,-47.5,42.5,42.5,B
4,Snehalata,F,2008-10-24,Raw,Sub-Juniors,65.9,69,UP,32.5,35,-42.5,35,35,B
1,Shivani Langeh,F,2004-05-21,Raw,Sub-Juniors,75.7,76,JK,55,67.5,72.5,72.5,72.5,B
2,Divya Kumawat,F,2008-05-30,Raw,Sub-Juniors,75.7,76,RJ,45,50,-55,50,50,B
3,Madhuri Veerala,F,2004-08-16,Raw,Sub-Juniors,69.3,76,AP,32.5,37.5,-40,37.5,37.5,B
4,Sandra Treasa Francis,F,2007-12-26,Raw,Sub-Juniors,75.2,76,KL,32.5,37.5,-40,37.5,37.5,B
5,Brahmacharimayum Nimi Chanu,F,2005-07-09,Raw,Sub-Juniors,70.2,76,MN,30,35,-42.5,35,35,B
1,Kshamya Rakesh Singh,F,2005-04-05,Raw,Sub-Juniors,83.5,84,MH,50,55,-57.5,55,55,B
2,Shreya Singh,F,2004-10-13,Raw,Sub-Juniors,83.2,84,RJ,52.5,-55,-55,52.5,52.5,B
3,Kamna,F,2004-12-26,Raw,Sub-Juniors,80.1,84,HR,45,50,-52.5,50,50,B
4,Akhila A,F,2005-09-19,Raw,Sub-Juniors,77.1,84,KL,37.5,42.5,-45,42.5,42.5,B
5,Moutam Thrisha,F,2004-10-21,Raw,Sub-Juniors,83.1,84,TE,20,22.5,27.5,27.5,27.5,B
1,Asha Kumari,F,,Raw,Sub-Juniors,85,84+,HR,55,57.5,60,60,60,B
2,Rabiha Patka,F,2009-08-13,Raw,Sub-Juniors,86.1,84+,MH,42.5,47.5,-50,47.5,47.5,B
3,Vidhi Gaonkar,F,2005-09-05,Raw,Sub-Juniors,91.7,84+,GA,40,-45,-45,40,40,B
1,Deepa Narwariya,F,2000-04-02,Raw,Juniors,40.9,43,MP,32.5,37.5,40,40,40,B
2,M. Jyothi,F,2003-07-07,Raw,Juniors,42.8,43,AP,27.5,30,-35,30,30,B
1,Harshada Ghole,F,2002-05-30,Raw,Juniors,45.9,47,MH,55,60,-62.5,60,60,B
2,Marbashisha Nongsteng,F,1999-06-28,Raw,Juniors,46.5,47,ML,45,47.5,-52.5,47.5,47.5,B
3,Monika Bhadra,F,2002-11-18,Raw,Juniors,46.7,47,WB,42.5,47.5,-50,47.5,47.5,B
4,Yatiksha Rao,F,2001-01-03,Raw,Juniors,45.6,47,JK,40,45,-47.5,45,45,B
5,Sweta Rajput,F,2000-12-06,Raw,Juniors,43.7,47,MP,37.5,40,-42.5,40,40,B
6,Priyanka Gupta,F,2001-08-25,Raw,Juniors,46.6,47,DL,-35,35,40,40,40,B
7,Mukkadala Anusha,F,2003-12-07,Raw,Juniors,46.9,47,AP,32.5,-37.5,-37.5,32.5,32.5,B
1,Sanghamitra Roy,F,2002-10-16,Raw,Juniors,50.1,52,WB,50,-57.5,57.5,57.5,57.5,B
2,Supriya Pandurang Supekar,F,2001-10-10,Raw,Juniors,51.2,52,MH,45,50,-52.5,50,50,B
3,Ragshree Kori,F,2000-01-28,Raw,Juniors,51.3,52,MP,37.5,42.5,-52.5,42.5,42.5,B
4,Afnan Hirosh,F,2001-08-21,Raw,Juniors,51.1,52,KL,-37.5,40,-42.5,40,40,B
5,Ngangranabi Thokchom,F,1999-06-07,Raw,Juniors,51,52,MN,20,25,-30,25,25,B
1,Fulmoti Roy,F,2002-09-15,Raw,Juniors,54.6,57,WB,60,65,-70,65,65,B
2,Mahak Yadav,F,2003-12-15,Raw,Juniors,55.4,57,RJ,57.5,-60,-60,57.5,57.5,B
3,Renu Chauhan,F,2000-06-12,Raw,Juniors,57,57,PY,50,57.5,-60,57.5,57.5,B
4,Shana Khan,F,,Raw,Juniors,57,57,MP,50,52.5,-55,52.5,52.5,B
5,Devashri Pilaji Jadhavrao,F,,Raw,Juniors,57,57,MH,50,-52.5,-52.5,50,50,B
1,Sakshi Mor,F,1999-08-19,Raw,Juniors,62.3,63,DL,60,65,70,70,70,B
2,Ayushi Verma,F,2003-01-02,Raw,Juniors,62.1,63,MP,62.5,67.5,-70,67.5,67.5,B
3,Vanshika Patidar,F,2003-09-29,Raw,Juniors,61.5,63,MP,52.5,-55,-55,52.5,52.5,B
4,Srabani Jena,F,2002-02-07,Raw,Juniors,59.9,63,OR,45,47.5,-52.5,47.5,47.5,B
5,Prachi Rana,F,2003-09-29,Raw,Juniors,60.8,63,DL,47.5,-52.5,-52.5,47.5,47.5,B
6,Vaishnavi Shetty,F,2001-06-07,Raw,Juniors,62.3,63,MH,42.5,47.5,-52.5,47.5,47.5,B
7,Talsaniya Bhumi Harjibhai,F,2000-06-09,Raw,Juniors,62.3,63,GJ,40,47.5,-52.5,47.5,47.5,B
8,Pranisha Gurav,F,2001-11-11,Raw,Juniors,61.7,63,GA,42.5,45,-47.5,45,45,B
DQ,Daphisa Janai Nongsiej,F,2000-10-29,Raw,Juniors,60.5,63,ML,-45,-45,-47.5,,,B
1,Subharti Mahato,F,2000-06-08,Raw,Juniors,68.3,69,WB,72.5,77.5,80,80,80,B
2,Venizeia A Carlo,F,2000-02-07,Raw,Juniors,68.4,69,KA,72.5,-77.5,-78.5,72.5,72.5,B
3,Sejal Moikar,F,2002-09-28,Raw,Juniors,67.6,69,MH,45,50,-55,50,50,B
4,Gundaveni Sruthi,F,2001-03-14,Raw,Juniors,68.4,69,TE,30,-35,-35,30,30,B
1,Sanika Rajendra Malusare,F,2003-08-11,Raw,Juniors,73.7,76,MH,60,65,-67.5,65,65,B
2,Prerana Salvi,F,2003-08-31,Raw,Juniors,75.2,76,MH,52.5,60,-67.5,60,60,B
DQ,Celestina Antoinette Rebello,F,2000-06-23,Raw,Juniors,70.8,76,KL,-55,-55,-55,,,B
1,Meenu Kalotra,F,2003-06-22,Raw,Juniors,77.5,84,JK,80,85,-92.5,85,85,B
2,Sonal Singh Chandel,F,2000-08-28,Raw,Juniors,83.4,84,MP,67.5,70,-72.5,70,70,B
3,Anushka Sarode,F,2002-03-02,Raw,Juniors,80.1,84,MH,57.5,-60,-60,57.5,57.5,B
4,Zainab Lala,F,2003-03-14,Raw,Juniors,83.6,84,GJ,45,50,-52.5,50,50,B
DQ,Sakshi Vibhute,F,2001-01-27,Raw,Juniors,82.8,84,MH,-60,-60,-60,,,B
1,Lovely Chandrabhushan Kesari,F,1977-10-11,Raw,Masters 1,45,47,MH,40,-42.5,-42.5,40,40,B
1,Jyoti Kandhare,F,1980-10-19,Raw,Masters 1,51.5,52,MH,60,62.5,65,65,65,B
2,Neeta Mehta,F,1977-04-07,Raw,Masters 1,51.4,52,MH,52.5,55,57.5,57.5,57.5,B
3,Sneha Kavlekar,F,1981-08-20,Raw,Masters 1,51.2,52,GA,30,35,40,40,40,B
1,Nilima Patil,F,1978-08-15,Raw,Masters 1,55,57,MH,52.5,55,-57.5,55,55,B
2,Ashwini Desai,F,1982-11-12,Raw,Masters 1,56.1,57,GA,35,37.5,40,40,40,B
3,Rajeswari K,F,1982-05-27,Raw,Masters 1,54.8,57,TN,25,27.5,-30,27.5,27.5,B
1,Meena Sharma,F,1974-01-01,Raw,Masters 1,61.8,63,MP,70,75,-77.5,75,75,B
2,Anita Rathi,F,1982-04-04,Raw,Masters 1,62.4,63,RJ,45,50,52.5,52.5,52.5,B
3,Sharmila Khude,F,1980-04-08,Raw,Masters 1,59.9,63,MH,45,-47.5,-47.5,45,45,B
4,Shaheena Sakkeer,F,1980-01-01,Raw,Masters 1,60.3,63,KL,25,30,-37.5,30,30,B
1,Sima Dutta Chatterjee,F,1977-12-31,Raw,Masters 1,69,69,WB,55,60,65,65,65,B
2,Rekha Agrawal,F,1979-03-15,Raw,Masters 1,69,69,MP,52.5,57.5,-65,57.5,57.5,B
3,Kiran Chondhe,F,1980-06-03,Raw,Masters 1,68.4,69,MH,40,45,47.5,47.5,47.5,B
1,Sunita Punch,F,1974-11-29,Raw,Masters 1,71,76,MP,60,65,68.5,68.5,68.5,B
2,Maya Kumari Joshi,F,1980-09-07,Raw,Masters 1,74.2,76,RJ,52.5,57.5,60,60,60,B
3,Madhu Kunwar,F,1981-07-05,Raw,Masters 1,73,76,RJ,30,35,-40,35,35,B
1,Manisha Gupta,F,1979-06-07,Raw,Masters 1,84,84,DL,55,60,-65,60,60,B
2,Manisha Mukesh Girap,F,1981-12-30,Raw,Masters 1,80,84,GA,50,57.5,-62.5,57.5,57.5,B
3,Sheeja Panachi,F,1973-05-02,Raw,Masters 1,81,84,KL,32.5,35,-37.5,35,35,B
4,Tonjam Bigati Devi,F,1977-03-03,Raw,Masters 1,76.8,84,MN,-30,32.5,-37.5,32.5,32.5,B
1,Savita,F,1980-01-01,Raw,Masters 1,91.9,84+,DL,60,62.5,67.5,67.5,67.5,B
2,Manjushri Puranik,F,1976-07-11,Raw,Masters 1,89.8,84+,MH,-55,-57.5,57.5,57.5,57.5,B
3,Bharati Mahapatra,F,1981-10-23,Raw,Masters 1,88.2,84+,MH,50,-55,55,55,55,B
1,Nicey K L,F,1968-04-07,Raw,Masters 2,46,47,KL,27.5,30,-32.5,30,30,B
1,Nehal Pandya,F,1972-01-07,Raw,Masters 2,57,57,GJ,30,-35,-35,30,30,B
1,Atom Somibala Devi,F,1972-02-02,Raw,Masters 2,62.6,63,MN,25,30,-35,30,30,B
1,Oinam Sanatombi Devi,F,1972-01-01,Raw,Masters 2,69,69,MN,30,-40,-40,30,30,B
1,Sreeja Sajeevan,F,1968-01-29,Raw,Masters 2,71.4,76,KL,-40,40,-47.5,40,40,B
1,Mary Beena,F,1965-05-31,Raw,Masters 2,95.8,84+,KL,65,70,75,75,75,B
1,Takhenchangbam Ibemhal Devi,F,1957-07-10,Raw,Masters 3,51.9,52,MN,-20,20,-25,20,20,B
1,Purna Bharde,F,1958-07-28,Raw,Masters 3,66.1,69,MH,35,40,42.5,42.5,42.5,B
2,Meera Razdan,F,1958-11-07,Raw,Masters 3,67.8,69,MP,30,-35,35,35,35,B
1,Thounaojam Tondon Devi,F,1962-02-01,Raw,Masters 3,72.1,76,MN,20,27.5,-30,27.5,27.5,B
2,S. Ibeyaima Devi,F,1962-02-01,Raw,Masters 3,72.5,76,MN,20,25,-30,25,25,B
