Name,Team,BodyweightKg,WeightClassKg,Division,Sex,Best3SquatKg,Best3BenchKg,Best3DeadliftKg,TotalKg,Event,Equipment,Place
Miranda Mueller,Neenah,43.1,44,F-JV,F,80,30,92.5,202.5,SBD,Single-ply,1
Jackie Miller,Necedah,42.7,44,F-JV,F,70,27.5,77.5,175,SBD,Single-ply,2
Alyssa Wilson,Case,47.9,48,F-JV,F,92.5,37.5,112.5,242.5,SBD,Single-ply,1
Carley McCord,Bishop Sullivan,46.4,48,F-JV,F,77.5,37.5,72.5,187.5,SBD,Single-ply,2
Courtney Langhoff,Neenah,51.3,52,F-JV,F,87.5,50,122.5,260,SBD,Single-ply,1
Andrea Mamrow,Horicon,50.8,52,F-JV,F,92.5,42.5,110,245,SBD,Single-ply,2
Kayla Paff,Plainwell,48.3,52,F-JV,F,90,50,95,235,SBD,Single-ply,3
Cala Feranec,Phillips,51,52,F-JV,F,77.5,35,105,217.5,SBD,Single-ply,4
Guadalupe Flores,Neenah,50.4,52,F-JV,F,72.5,37.5,105,215,SBD,Single-ply,5
Elissa Parker,Necedah,51.1,52,F-JV,F,77.5,35,97.5,210,SBD,Single-ply,6
Erin Donahue,Superior,49.6,52,F-JV,F,77.5,50,80,207.5,SBD,Single-ply,7
Sara Menard,Neenah,50.6,52,F-JV,F,80,30,95,205,SBD,Single-ply,8
Heather Ziesmer,Neenah,51.8,52,F-JV,F,82.5,27.5,95,205,SBD,Single-ply,9
Elizabeth Houle,Neenah,56,56,F-JV,F,87.5,42.5,125,255,SBD,Single-ply,1
Rachael Roberts,A.S.H.,52.1,56,F-JV,F,92.5,45,115,252.5,SBD,Single-ply,2
Renee Kutchera,Manitowoc Lincoln,54.7,56,F-JV,F,92.5,57.5,102.5,252.5,SBD,Single-ply,3
Holly Brenengen,G.E.T. H.S.,55.9,56,F-JV,F,90,45,97.5,232.5,SBD,Single-ply,4
Katie Gregory,Case,55.2,56,F-JV,F,85,35,102.5,222.5,SBD,Single-ply,5
Lizzi Slivinski,Neenah,54.8,56,F-JV,F,85,35,95,215,SBD,Single-ply,6
Maria Schumer,Necedah,54.3,56,F-JV,F,70,37.5,102.5,210,SBD,Single-ply,7
Brittany Gorka,G.E.T. H.S.,56,56,F-JV,F,70,,,,SBD,Single-ply,DQ
Cassie Farral,Case,59.8,60,F-JV,F,125,67.5,127.5,320,SBD,Single-ply,1
Laura Bergh,Necedah,59.2,60,F-JV,F,97.5,62.5,122.5,282.5,SBD,Single-ply,2
Kristin Van Meter,Necedah,59.5,60,F-JV,F,107.5,45,115,267.5,SBD,Single-ply,3
Melissa Weaver,G.E.T. H.S.,57.7,60,F-JV,F,100,42.5,120,262.5,SBD,Single-ply,4
Kelly Dormer,Pennridge,59.1,60,F-JV,F,92.5,40,120,252.5,SBD,Single-ply,5
Alisha Koxlien,G.E.T. H.S.,59.3,60,F-JV,F,92.5,42.5,102.5,237.5,SBD,Single-ply,6
Katie Van Dusen,Necedah,62.9,67.5,F-JV,F,132.5,60,132.5,325,SBD,Single-ply,1
Sarah Hetzler,Plainwell,64.5,67.5,F-JV,F,112.5,57.5,137.5,307.5,SBD,Single-ply,2
Tricia Flaherty,Manitowoc Lincoln,65.1,67.5,F-JV,F,115,60,125,300,SBD,Single-ply,3
Brittany Shreiner,Manitowoc Lincoln,64.8,67.5,F-JV,F,110,60,122.5,292.5,SBD,Single-ply,4
Amanda Brenneman,Xavier H.S.,64.2,67.5,F-JV,F,115,55,120,290,SBD,Single-ply,5
Heather Ruhland,Riverdale,64.2,67.5,F-JV,F,110,55,117.5,282.5,SBD,Single-ply,6
Becky Black,G.E.T. H.S.,63.3,67.5,F-JV,F,105,55,107.5,267.5,SBD,Single-ply,7
Hillary McLaren,Neenah,65.1,67.5,F-JV,F,107.5,47.5,112.5,267.5,SBD,Single-ply,8
Jessica Nelson,G.E.T. H.S.,65.5,67.5,F-JV,F,92.5,55,97.5,245,SBD,Single-ply,9
Danielle Halverson,G.E.T. H.S.,67,67.5,F-JV,F,90,40,85,215,SBD,Single-ply,10
Jece Heemeyer,Phillips,69.7,75,F-JV,F,110,52.5,130,292.5,SBD,Single-ply,1
Lesley Urbina,A.S.H.,73.8,75,F-JV,F,117.5,47.5,122.5,287.5,SBD,Single-ply,2
Jenny Molitor,Neenah,69.8,75,F-JV,F,115,40,120,275,SBD,Single-ply,3
Sam Hood,Necedah,68.7,75,F-JV,F,110,42.5,110,262.5,SBD,Single-ply,4
Andrea Southard,Grayling,73.6,75,F-JV,F,,,,,SBD,Single-ply,DQ
Elizabeth West,Riverdale,74,75,F-JV,F,,,,,SBD,Single-ply,DQ
Hope Block,Yankton,82,82.5,F-JV,F,120,55,125,300,SBD,Single-ply,1
Jessica Rychecky,Necedah,78.5,82.5,F-JV,F,105,40,112.5,257.5,SBD,Single-ply,2
Leah Smerud,Holmen,82.1,82.5,F-JV,F,105,57.5,,,SBD,Single-ply,DQ
Jordan Stupecky,Neenah,77.7,82.5,F-JV,F,,,,,SBD,Single-ply,DQ
Kaitlyn Marsh,Neenah,87.2,90,F-JV,F,115,47.5,122.5,285,SBD,Single-ply,1
Angelnette Lee,A.S.H.,94.3,90+,F-JV,F,127.5,57.5,152.5,337.5,SBD,Single-ply,1
Sarah Deville,A.S.H.,43.9,44,F-V,F,95,45,110,250,SBD,Single-ply,1
Stevie Cross,Necedah,43.7,44,F-V,F,87.5,47.5,105,240,SBD,Single-ply,2
Katie Somers,Marinette,43.7,44,F-V,F,80,42.5,97.5,220,SBD,Single-ply,3
Stephanie Sitkawitz,Manitowoc Lincoln,42.7,44,F-V,F,70,40,85,195,SBD,Single-ply,4
Audrey Karbowski,Necedah,47.8,48,F-V,F,112.5,47.5,135,295,SBD,Single-ply,1
Chelsea Richard,Wood Lawn,47.8,48,F-V,F,102.5,55,117.5,275,SBD,Single-ply,2
Amy Seebruck,Necedah,46.1,48,F-V,F,105,42.5,115,262.5,SBD,Single-ply,3
Gayle Sampson,Neenah,48,48,F-V,F,97.5,60,105,262.5,SBD,Single-ply,4
Megan Bruischart,Plainwell,47.8,48,F-V,F,100,52.5,102.5,255,SBD,Single-ply,5
Sara Beebe,Plainwell,45.8,48,F-V,F,72.5,50,107.5,230,SBD,Single-ply,6
Kasey Parker,Necedah,47.6,48,F-V,F,87.5,40,102.5,230,SBD,Single-ply,7
Lora Marietta,Decatur Community,51.4,52,F-V,F,122.5,70,132.5,325,SBD,Single-ply,1
Lauren Houle,Neenah,51.6,52,F-V,F,122.5,65,130,317.5,SBD,Single-ply,2
Chasidee Lewis,A.S.H.,51.5,52,F-V,F,117.5,50,120,287.5,SBD,Single-ply,3
Breanne Carlson,Peshtigo,51.5,52,F-V,F,87.5,55,117.5,260,SBD,Single-ply,4
Jami Beebe,Plainwell,51.5,52,F-V,F,75,62.5,117.5,255,SBD,Single-ply,5
Laura Willis,A.S.H.,50.4,52,F-V,F,92.5,47.5,100,240,SBD,Single-ply,6
Rachel Touchet,Bishop Sullivan,51.8,52,F-V,F,90,42.5,102.5,235,SBD,Single-ply,7
Meg Kaan,Necedah,51.4,52,F-V,F,87.5,40,102.5,230,SBD,Single-ply,8
Katie Kneisler,Seymour,51.3,52,F-V,F,72.5,47.5,107.5,227.5,SBD,Single-ply,9
Tahlia Haeuser,Holmen,49.6,52,F-V,F,87.5,45,92.5,225,SBD,Single-ply,10
Lindsey Geske,G.E.T. H.S.,51.5,52,F-V,F,70,30,82.5,182.5,SBD,Single-ply,14
Hannah Lehmen,G.E.T. H.S.,51.4,52,F-V,F,85,40,95,220,SBD,Single-ply,11
Skye Meyers,Necedah,52,52,F-V,F,67.5,35,102.5,205,SBD,Single-ply,12
Jessica Sabin,Necedah,51.3,52,F-V,F,72.5,37.5,92.5,202.5,SBD,Single-ply,13
Carly Nogle,Plainwell,56,56,F-V,F,155,90,182.5,427.5,SBD,Single-ply,1
Jasmine Brewer,Riverdale,53.9,56,F-V,F,115,57.5,137.5,310,SBD,Single-ply,2
Tiffany Medeiros,Abington Heights,55.8,56,F-V,F,127.5,52.5,127.5,307.5,SBD,Single-ply,3
Shelley Balcer,Superior,55.5,56,F-V,F,105,65,115,285,SBD,Single-ply,4
Jillian Schooley,Neenah,55.2,56,F-V,F,105,45,117.5,267.5,SBD,Single-ply,5
Heather Schaufenbil,G.E.T. H.S.,55,56,F-V,F,102.5,50,107.5,260,SBD,Single-ply,6
Heidi Baumann,Riverdale,55.1,56,F-V,F,92.5,50,112.5,255,SBD,Single-ply,7
Joan McDonah,G.E.T. H.S.,55.4,56,F-V,F,90,42.5,102.5,235,SBD,Single-ply,8
Lindsay Bennett,Bishop Sullivan,55.5,56,F-V,F,80,37.5,110,227.5,SBD,Single-ply,9
Stephanie Jenson,Skyview,54.9,56,F-V,F,80,50,90,220,SBD,Single-ply,10
Nikita Brabbit,G.E.T. H.S.,55.3,56,F-V,F,70,35,97.5,202.5,SBD,Single-ply,11
Meghan Jovanovich,Neenah,58.9,60,F-V,F,137.5,65,130,332.5,SBD,Single-ply,1
Brienne Mire,East Ascension,60,60,F-V,F,125,57.5,137.5,320,SBD,Single-ply,2
Sheilla Docken,G.E.T. H.S.,59.3,60,F-V,F,107.5,72.5,120,300,SBD,Single-ply,3
Amy Welcome,Abington Heights,59.2,60,F-V,F,107.5,47.5,130,285,SBD,Single-ply,4
Kari Robichaux,A.S.H.,59.7,60,F-V,F,92.5,45,117.5,255,SBD,Single-ply,5
Amanda McDaniel,Bishop Sullivan,59.3,60,F-V,F,90,52.5,105,247.5,SBD,Single-ply,6
Angela Matt,Holy Savior Menard,64.9,67.5,F-V,F,165,85,167.5,417.5,SBD,Single-ply,1
Kala McCauley,Plainwell,66.1,67.5,F-V,F,127.5,75,150,352.5,SBD,Single-ply,2
Emily Sue Steck,Holmen,65.6,67.5,F-V,F,132.5,62.5,152.5,347.5,SBD,Single-ply,3
Natalie Pfoff,Ridgeview,65.8,67.5,F-V,F,125,75,142.5,342.5,SBD,Single-ply,4
Jenae Jindra,Clarkson Public,65.2,67.5,F-V,F,125,65,147.5,337.5,SBD,Single-ply,5
Ann Bahm,Bishop Sullivan,65.5,67.5,F-V,F,137.5,70,127.5,335,SBD,Single-ply,6
Jodi Bossier,A.S.H.,66.5,67.5,F-V,F,122.5,70,137.5,330,SBD,Single-ply,7
Ashley Bordeaux,Neenah,64.9,67.5,F-V,F,117.5,57.5,137.5,312.5,SBD,Single-ply,8
Mandy Martin,G.E.T. H.S.,66.6,67.5,F-V,F,112.5,55,142.5,310,SBD,Single-ply,9
Katie Longwell,G.E.T. H.S.,64.2,67.5,F-V,F,107.5,55,117.5,280,SBD,Single-ply,10
Brittany Fritsch,G.E.T. H.S.,65.8,67.5,F-V,F,107.5,50,112.5,270,SBD,Single-ply,11
Autum Brush,G.E.T. H.S.,66.8,67.5,F-V,F,97.5,62.5,107.5,267.5,SBD,Single-ply,12
Indiah Lenae Ray,A.S.H.,67.2,67.5,F-V,F,102.5,52.5,112.5,267.5,SBD,Single-ply,13
Angie Krahn,Seymour,62,67.5,F-V,F,102.5,50,110,262.5,SBD,Single-ply,14
Renea Tridle,G.E.T. H.S.,64.3,67.5,F-V,F,107.5,60,90,257.5,SBD,Single-ply,15
Nicole Christensen,Seymour,63.4,67.5,F-V,F,90,50,115,255,SBD,Single-ply,16
Megan Karow,G.E.T. H.S.,62.1,67.5,F-V,F,100,47.5,97.5,245,SBD,Single-ply,17
Molly Dennany,Plainwell,68.7,75,F-V,F,150,100,152.5,402.5,SBD,Single-ply,1
Tiffany Walls,A.S.H.,72.5,75,F-V,F,137.5,62.5,142.5,342.5,SBD,Single-ply,2
Brynn Lambert,East Ascension,74.6,75,F-V,F,147.5,55,130,332.5,SBD,Single-ply,3
Samatha Sonnenberg,Lincoln,74.9,75,F-V,F,135,65,132.5,332.5,SBD,Single-ply,4
Sarah Manning,Necedah,73.5,75,F-V,F,132.5,57.5,132.5,322.5,SBD,Single-ply,5
Joanne Neff,Riverdale,68.9,75,F-V,F,120,57.5,132.5,310,SBD,Single-ply,6
Jenna Barrett,Neenah,73.4,75,F-V,F,115,60,125,300,SBD,Single-ply,7
Kayla Ward,Holmen,71.1,75,F-V,F,130,50,112.5,292.5,SBD,Single-ply,8
Charlotte Reihl,Pennridge,69.4,75,F-V,F,107.5,52.5,125,285,SBD,Single-ply,9
Heidi Jo Brenengen,G.E.T. H.S.,72,75,F-V,F,110,45,120,275,SBD,Single-ply,10
Ashley Headrick,Holmen,74.5,75,F-V,F,102.5,45,117.5,265,SBD,Single-ply,11
Andrea Hay,Peshtigo,70.7,75,F-V,F,100,40,110,250,SBD,Single-ply,12
Alaina Prill,Phillips,72.8,75,F-V,F,92.5,35,115,242.5,SBD,Single-ply,13
Traci Till,A.S.H.,82.2,82.5,F-V,F,160,87.5,175,422.5,SBD,Single-ply,1
Amy Morse,Kaukauna,80.2,82.5,F-V,F,160,85,172.5,417.5,SBD,Single-ply,2
Amy Hocutt,Horlick,77.3,82.5,F-V,F,147.5,95,172.5,415,SBD,Single-ply,3
Tiffany Batiste,A.S.H.,76.3,82.5,F-V,F,122.5,60,145,327.5,SBD,Single-ply,4
Jen Harvey,Kaukauna,77.9,82.5,F-V,F,125,60,137.5,322.5,SBD,Single-ply,5
Bonnie Strawn,Bellevue East,75.9,82.5,F-V,F,137.5,60,122.5,320,SBD,Single-ply,6
Lindsey Lebakken,G.E.T. H.S.,81.8,82.5,F-V,F,100,65,137.5,302.5,SBD,Single-ply,7
Bonica Brown,Plainwell,88.7,90,F-V,F,190,100,195,485,SBD,Single-ply,1
Miranda Newcomb,A.S.H.,86.4,90,F-V,F,137.5,77.5,132.5,347.5,SBD,Single-ply,2
Jennifer Swanson,Neenah,86.8,90,F-V,F,125,45,135,305,SBD,Single-ply,3
Erika Headrick,Holmen,138.5,90+,F-V,F,195,87.5,182.5,465,SBD,Single-ply,1
Shea Wallus,Plainwell,145.5,90+,F-V,F,165,117.5,162.5,445,SBD,Single-ply,2
Kate Ahlers,Priest River Lamman,95.5,90+,F-V,F,152.5,102.5,160,415,SBD,Single-ply,3
Elise Moran,Bishop Sullivan,116.1,90+,F-V,F,170,82.5,157.5,410,SBD,Single-ply,4
Tamara Walter,Crofton,125.3,90+,F-V,F,182.5,65,162.5,410,SBD,Single-ply,5
Lacey Weaver,A.S.H.,109.3,90+,F-V,F,137.5,70,152.5,360,SBD,Single-ply,6
Rachelle Hecht,Vassar,101.7,90+,F-V,F,145,72.5,135,352.5,SBD,Single-ply,7
Heather Cotton,A.S.H.,142.4,90+,F-V,F,147.5,62.5,137.5,347.5,SBD,Single-ply,8
Sheila Schnautz,Phillips,92.6,90+,F-V,F,130,55,140,325,SBD,Single-ply,9
Ericka Booze,A.S.H.,114.8,90+,F-V,F,137.5,62.5,122.5,322.5,SBD,Single-ply,10
Matt Knight #2,Horlick,51,52,M-JV,M,127.5,67.5,135,330,SBD,Single-ply,1
Zach Karbula,G.E.T.,51.5,52,M-JV,M,112.5,60,142.5,315,SBD,Single-ply,2
Travis Conner,Horlick,51.3,52,M-JV,M,117.5,60,112.5,290,SBD,Single-ply,3
Ben Zagone,Bishop Sullivan,52,52,M-JV,M,92.5,75,122.5,290,SBD,Single-ply,4
Corey Taylor,Bellevue East,50.4,52,M-JV,M,110,57.5,115,282.5,SBD,Single-ply,5
Ted Harris,Neenah,51.65,52,M-JV,M,115,52.5,112.5,280,SBD,Single-ply,6
Robert Castillo,Neenah,51.7,52,M-JV,M,90,57.5,130,277.5,SBD,Single-ply,7
Josh Dahl,G.E.T.,49.8,52,M-JV,M,105,60,105,270,SBD,Single-ply,8
Brandon Webb,Neenah,46.1,52,M-JV,M,85,40,105,230,SBD,Single-ply,9
John Badagliacco,Hayward,55.2,56,M-JV,M,130,85,175,390,SBD,Single-ply,1
Nick Johnson,Neenah,55.4,56,M-JV,M,120,62.5,132.5,315,SBD,Single-ply,2
Karl Geske,G.E.T.,55.3,56,M-JV,M,112.5,67.5,117.5,297.5,SBD,Single-ply,3
Ben Stacker,Neenah,55.4,56,M-JV,M,112.5,52.5,132.5,297.5,SBD,Single-ply,4
Maliek Derstine,Pennridge,58.6,60,M-JV,M,185,115,207.5,507.5,SBD,Single-ply,1
Josh Townsend,Plainwell,58.9,60,M-JV,M,152.5,77.5,165,395,SBD,Single-ply,2
Brian Mikulecky,Case,59.5,60,M-JV,M,137.5,65,177.5,380,SBD,Single-ply,3
Kyle Spiekermann,Plainwell,59.3,60,M-JV,M,130,67.5,137.5,335,SBD,Single-ply,4
Joseph Raehl,Neenah,66.84,67.5,M-JV,M,185,97.5,212.5,495,SBD,Single-ply,1
Jeff Ruohomaki,Neenah,66.25,67.5,M-JV,M,160,105,172.5,437.5,SBD,Single-ply,2
Matt Carpenter,Plainwell,66.84,67.5,M-JV,M,147.5,105,185,437.5,SBD,Single-ply,3
Jacob Maffett,Ridgeview,67.15,67.5,M-JV,M,175,77.5,185,437.5,SBD,Single-ply,4
Tyler Olson,Manitowoc Lutheran,66.66,67.5,M-JV,M,147.5,95,182.5,425,SBD,Single-ply,5
Joseph McKell,Bishop Sullivan,63.44,67.5,M-JV,M,157.5,80,175,412.5,SBD,Single-ply,6
Travis Wallace,Plainwell,66.32,67.5,M-JV,M,117.5,92.5,172.5,382.5,SBD,Single-ply,7
JD Diaz,Mountain Home,65.97,67.5,M-JV,M,142.5,85,152.5,380,SBD,Single-ply,8
Justin Tuinstra,Plainwell,73.78,75,M-JV,M,172.5,125,197.5,495,SBD,Single-ply,1
Clint Nagy,Northland Pines,70.35,75,M-JV,M,175,92.5,192.5,460,SBD,Single-ply,2
Jamelle Williams,Lane Tech,73.9,75,M-JV,M,150,97.5,185,432.5,SBD,Single-ply,3
Stephen Fuller,Bellevue East,73.33,75,M-JV,M,152.5,105,172.5,430,SBD,Single-ply,4
Matt Brady,G.E.T.,72.65,75,M-JV,M,155,92.5,167.5,415,SBD,Single-ply,5
Matt Sharpless,Neenah,79.11,82.5,M-JV,M,182.5,90,207.5,480,SBD,Single-ply,1
Steve Thompson,Lane Tech,77.86,82.5,M-JV,M,165,92.5,215,472.5,SBD,Single-ply,2
Ross Thomas,Xavier,80.23,82.5,M-JV,M,172.5,95,205,472.5,SBD,Single-ply,3
Dustin Roggenbuck,Ortonville,81.28,82.5,M-JV,M,162.5,105,195,462.5,SBD,Single-ply,4
Weylin Harris,Ridgeview,79.06,82.5,M-JV,M,162.5,105,182.5,450,SBD,Single-ply,5
Brent Bardin,Bangor,81.67,82.5,M-JV,M,127.5,97.5,195,420,SBD,Single-ply,6
Tom Dowers,Skyview,81.7,82.5,M-JV,M,162.5,110,,,SBD,Single-ply,DQ
Brett Bishop,Pennridge,85.65,90,M-JV,M,185,117.5,227.5,530,SBD,Single-ply,1
David George,Skyview,89.45,90,M-JV,M,185,95,205,485,SBD,Single-ply,2
Ryan Van Zeeland,Xavier,88.24,90,M-JV,M,160,102.5,205,467.5,SBD,Single-ply,3
Andrew Harrison,Ridgeview,89.47,90,M-JV,M,165,97.5,187.5,450,SBD,Single-ply,4
Reed Summers,Plainwell,95.31,100,M-JV,M,195,157.5,227.5,580,SBD,Single-ply,1
Brandon Fiebiger,Plainwell,96.63,100,M-JV,M,217.5,112.5,215,545,SBD,Single-ply,2
Danny Flonta,Skyview,99.67,100,M-JV,M,210,132.5,200,542.5,SBD,Single-ply,3
Nick Bocik,Xavier,96.12,100,M-JV,M,187.5,120,217.5,525,SBD,Single-ply,4
Jeremy Taylor #2,Rhinelander,105.25,110,M-JV,M,205,127.5,247.5,580,SBD,Single-ply,1
Kyle Weiss #2,Pennridge,100.29,110,M-JV,M,212.5,107.5,215,535,SBD,Single-ply,2
Tony Bland,Bellevue East,103.6,110,M-JV,M,175,110,232.5,517.5,SBD,Single-ply,3
Matthew Larson,Grayling,107.6,110,M-JV,M,190,107.5,217.5,515,SBD,Single-ply,4
Andy Schmelzle,Necedah,108.45,110,M-JV,M,,,,,SBD,Single-ply,DQ
Alex Gilde,McBain,115.11,125,M-JV,M,250,172.5,272.5,695,SBD,Single-ply,1
Joe Stommel,Horicon,111.95,125,M-JV,M,165,115,175,455,SBD,Single-ply,2
Nick Ludwig,Manitowoc Lincoln,139.08,125+,M-JV,M,295,192.5,232.5,720,SBD,Single-ply,1
Eric Kratz #2,Pennridge,51.7,52,M-V,M,112.5,80,155,347.5,SBD,Single-ply,1
Tyler Baines,St. Xavier,51.4,52,M-V,M,122.5,80,137.5,340,SBD,Single-ply,2
Morgan Crapsey,Plainwell,51.6,52,M-V,M,120,65,150,335,SBD,Single-ply,3
Cord Baldwin,North Central,51.6,52,M-V,M,117.5,70,142.5,330,SBD,Single-ply,4
Mathew Molosso,Buckeye,50.6,52,M-V,M,122.5,67.5,137.5,327.5,SBD,Single-ply,5
Danny Walther,Bellevue East,51.4,52,M-V,M,117.5,65,142.5,325,SBD,Single-ply,6
Ryan Bachorz,Neenah,50.6,52,M-V,M,117.5,72.5,132.5,322.5,SBD,Single-ply,7
John Liner,A.S.H.,50.3,52,M-V,M,110,60,135,305,SBD,Single-ply,8
Nick Norwood,St. Xavier,50.8,52,M-V,M,100,70,117.5,287.5,SBD,Single-ply,9
Ed Kim,Skyview,50.2,52,M-V,M,100,75,,,SBD,Single-ply,DQ
Tim Cross,Necedah,55.44,56,M-V,M,182.5,107.5,157.5,447.5,SBD,Single-ply,1
Jake Hile,Lincoln SW,55.75,56,M-V,M,170,85,167.5,422.5,SBD,Single-ply,2
John O. Conner,Horlick,55.54,56,M-V,M,137.5,80,167.5,385,SBD,Single-ply,3
Kyle Dahl,G.E.T. H.S.,54.96,56,M-V,M,137.5,77.5,162.5,377.5,SBD,Single-ply,4
Channing Williams,Marquette University,55.1,56,M-V,M,137.5,72.5,150,360,SBD,Single-ply,5
Dan Nitzken,St. Xavier,55.5,56,M-V,M,125,72.5,132.5,330,SBD,Single-ply,6
Derriek Sheppard,A.S.H.,59.9,60,M-V,M,190,120,200,510,SBD,Single-ply,1
JD Benjamin,North Central,59.8,60,M-V,M,165,100,215,480,SBD,Single-ply,2
Josh Oliver,Neenah,59.2,60,M-V,M,187.5,95,195,477.5,SBD,Single-ply,3
Sam Lidester,Case,60,60,M-V,M,170,87.5,200,457.5,SBD,Single-ply,4
Travis Ouradnik,Manitowoc Lincoln,59.6,60,M-V,M,162.5,90,190,442.5,SBD,Single-ply,5
Nick Slaasted,Horlick,58.8,60,M-V,M,162.5,85,192.5,440,SBD,Single-ply,6
Patrick Doyle,Abington Heights,59.4,60,M-V,M,155,85,172.5,412.5,SBD,Single-ply,7
Ben Kammueller,G.E.T. H.S.,58.5,60,M-V,M,132.5,90,162.5,385,SBD,Single-ply,8
Andrew Blessinger,St. Xavier,57.7,60,M-V,M,145,67.5,142.5,355,SBD,Single-ply,9
David Albus,Bishop Sullivan,57.9,60,M-V,M,127.5,65,160,352.5,SBD,Single-ply,10
Joe Cefalu,Bishop Sullivan,57.9,60,M-V,M,115,70,145,330,SBD,Single-ply,11
Vincent Niedoliwka,Plainwell,66.7,67.5,M-V,M,232.5,157.5,260,650,SBD,Single-ply,1
Wayne Veal,A.S.H.,67.2,67.5,M-V,M,207.5,140,262.5,610,SBD,Single-ply,2
Steven Mikulecky,Case,67,67.5,M-V,M,195,122.5,240,557.5,SBD,Single-ply,3
Jason Thomas,Plainwell,66.9,67.5,M-V,M,187.5,115,202.5,505,SBD,Single-ply,4
Jon Norwood,St. Xavier,66,67.5,M-V,M,175,132.5,182.5,490,SBD,Single-ply,5
Joe Welch,Superior,66.8,67.5,M-V,M,170,92.5,202.5,465,SBD,Single-ply,6
Matt Schlies,Mishicot,66.9,67.5,M-V,M,157.5,110,185,452.5,SBD,Single-ply,7
Craig Dombrowski,Seymour,66.3,67.5,M-V,M,155,95,190,440,SBD,Single-ply,8
Shane Lee,Holmen,66.2,67.5,M-V,M,140,130,152.5,422.5,SBD,Single-ply,9
Kyle Brady,G.E.T. H.S.,65.4,67.5,M-V,M,142.5,105,172.5,420,SBD,Single-ply,10
Quentin Moller,G.E.T. H.S.,65.8,67.5,M-V,M,132.5,87.5,197.5,417.5,SBD,Single-ply,11
Nick Sharpless,Neenah,63.7,67.5,M-V,M,142.5,67.5,165,375,SBD,Single-ply,12
David Labrie,Case,73.9,75,M-V,M,207.5,132.5,235,575,SBD,Single-ply,1
Daniel LePert,Plainwell,73.3,75,M-V,M,210,142.5,215,567.5,SBD,Single-ply,2
Glenn France,Slidell H.S.,69.96,75,M-V,M,227.5,112.5,225,565,SBD,Single-ply,3
Richard Calderone,Slidell H.S.,71.2,75,M-V,M,217.5,110,232.5,560,SBD,Single-ply,4
Travis Kibler,Plainwell,72.4,75,M-V,M,207.5,110,235,552.5,SBD,Single-ply,5
Matt Hastie,Scranton,74.9,75,M-V,M,210,120,210,540,SBD,Single-ply,6
Robert John Hanley,Osceola,74,75,M-V,M,185,142.5,207.5,535,SBD,Single-ply,7
David Starkey,St. Amant,74,75,M-V,M,197.5,122.5,215,535,SBD,Single-ply,8
Christopher Rini,A.S.H.,73.4,75,M-V,M,190,112.5,212.5,515,SBD,Single-ply,9
Matt Cross,A.S.H.,73.9,75,M-V,M,190,117.5,195,502.5,SBD,Single-ply,10
William Slaughter,A.S.H.,74.5,75,M-V,M,195,90,205,490,SBD,Single-ply,11
Mike Schmelzle,Necedah,73.6,75,M-V,M,170,102.5,212.5,485,SBD,Single-ply,12
Chip Timm,G.E.T. H.S.,73.3,75,M-V,M,165,127.5,190,482.5,SBD,Single-ply,13
Tommy Scott,North Central,73.1,75,M-V,M,187.5,117.5,172.5,477.5,SBD,Single-ply,15
Zac Meihaus,St. Xavier,71.6,75,M-V,M,177.5,122.5,177.5,477.5,SBD,Single-ply,14
Chris Hurt,Necedah,70.7,75,M-V,M,177.5,90,180,447.5,SBD,Single-ply,16
Noah Karow,G.E.T. H.S.,73.3,75,M-V,M,150,95,192.5,437.5,SBD,Single-ply,17
Tanner Daffinson,G.E.T. H.S.,74.2,75,M-V,M,150,105,177.5,432.5,SBD,Single-ply,18
Dustin Cornell,Homer,81.34,82.5,M-V,M,230,160,220,610,SBD,Single-ply,1
Eric Thomas,A.S.H.,81.52,82.5,M-V,M,220,112.5,242.5,575,SBD,Single-ply,2
Jake Cox,Osceola,80.25,82.5,M-V,M,210,127.5,227.5,565,SBD,Single-ply,3
Jonathan Pritchard,Thorndale,78.42,82.5,M-V,M,215,125,220,560,SBD,Single-ply,4
Matt Brede,Osceola,79.81,82.5,M-V,M,192.5,110,242.5,545,SBD,Single-ply,5
Steven Vinson,Case,80.7,82.5,M-V,M,195,122.5,215,532.5,SBD,Single-ply,7
Eric Fischer,Kaukauna,80.06,82.5,M-V,M,210,97.5,225,532.5,SBD,Single-ply,6
Jaeson Rogers,Skyview,80.66,82.5,M-V,M,192.5,117.5,205,515,SBD,Single-ply,8
Troy Ladish,Mountain Home,80.98,82.5,M-V,M,182.5,117.5,200,500,SBD,Single-ply,10
Brian Shekels,Adams-Friendship,77.75,82.5,M-V,M,180,120,200,500,SBD,Single-ply,9
Tim Schultz,Horicon,79.85,82.5,M-V,M,165,125,200,490,SBD,Single-ply,11
Andy Schwertel,G.E.T. H.S.,77.96,82.5,M-V,M,160,110,200,470,SBD,Single-ply,12
Jonathan Beinlein,St. Xavier,79.68,82.5,M-V,M,185,95,185,465,SBD,Single-ply,13
Cory Saltzman,Plainwell,86.48,90,M-V,M,265,147.5,313.5,726,SBD,Single-ply,1
Derek Brixius,Neenah,89.32,90,M-V,M,255,145,247.5,647.5,SBD,Single-ply,2
Levi Jungbluth,Oconomowoc H.S.,89.22,90,M-V,M,237.5,160,245,642.5,SBD,Single-ply,3
Luke Savoie,Bishop Sullivan,88.07,90,M-V,M,235,130,237.5,602.5,SBD,Single-ply,4
Brad Mecha,Manitowoc Lincoln,88.72,90,M-V,M,215,145,227.5,587.5,SBD,Single-ply,5
Kenny Higden,St. Xavier,88.9,90,M-V,M,202.5,165,192.5,560,SBD,Single-ply,6
John Hackman,Manitowoc Lincoln,88.13,90,M-V,M,215,110,222.5,547.5,SBD,Single-ply,7
Brent Miller,Menasha,86.68,90,M-V,M,202.5,105,227.5,535,SBD,Single-ply,8
Matt Mancl,Neenah,87.22,90,M-V,M,195,117.5,210,522.5,SBD,Single-ply,9
Travis Cecil,St. Xavier,89.98,90,M-V,M,217.5,120,185,522.5,SBD,Single-ply,10
Shane McConnell,Bellevue East,83.86,90,M-V,M,190,100,227.5,517.5,SBD,Single-ply,11
Dan Snider,Grayling,87.48,90,M-V,M,205,115,175,495,SBD,Single-ply,12
Loris Lepri,Abington Heights,87.05,90,M-V,M,192.5,110,185,487.5,SBD,Single-ply,13
Daniel Eads,Pope John Paul II,96.73,100,M-V,M,287.5,127.5,287.5,702.5,SBD,Single-ply,1
Josh Cunningham,EA Johnson,97.32,100,M-V,M,257.5,195,250,702.5,SBD,Single-ply,2
Garrett Halphen,Bishop Sullivan,98.47,100,M-V,M,240,165,262.5,667.5,SBD,Single-ply,3
Kevin Beranek,Oconomowoc,99.3,100,M-V,M,260,145,250,655,SBD,Single-ply,4
Lucas Southard,Grayling,98.13,100,M-V,M,232.5,137.5,252.5,622.5,SBD,Single-ply,5
Dusty Barilani,G.E.T. H.S.,99.19,100,M-V,M,190,150,215,555,SBD,Single-ply,6
Eric Dutscheck,Necedah,93.2,100,M-V,M,212.5,122.5,217.5,552.5,SBD,Single-ply,7
Jeffrey Reim,Abington Heights,96.92,100,M-V,M,207.5,132.5,212.5,552.5,SBD,Single-ply,8
Brandon Clark,Bellevue East,95.98,100,M-V,M,170,137.5,200,507.5,SBD,Single-ply,9
Antoine Murphy,North Central,94.59,100,M-V,M,202.5,95,207.5,505,SBD,Single-ply,10
Nick Rasmussen,Ovid-Elie,108.22,110,M-V,M,287.5,157.5,290,735,SBD,Single-ply,1
Joseph Tronzo,St. Xavier,105.02,110,M-V,M,262.5,177.5,272.5,712.5,SBD,Single-ply,2
Cooper Wage,Holmen,109.98,110,M-V,M,277.5,142.5,210,630,SBD,Single-ply,3
Robert Rini,A.S.H.,108.49,110,M-V,M,222.5,150,222.5,595,SBD,Single-ply,4
Mitchell Winn,Seymour,108.68,110,M-V,M,255,107.5,217.5,580,SBD,Single-ply,5
AJ Bolen,A.S.H.,101.37,110,M-V,M,217.5,105,240,562.5,SBD,Single-ply,6
Kyle Christensen,Bellevue East,101.09,110,M-V,M,200,110,217.5,527.5,SBD,Single-ply,7
Donnie Ferrier,A.S.H.,105.54,110,M-V,M,195,105,217.5,517.5,SBD,Single-ply,8
Andy Komperud,G.E.T. H.S.,108.63,110,M-V,M,165,120,185,470,SBD,Single-ply,9
Jonathan Krogman,Marshall,106.56,110,M-V,M,277.5,,,,SBD,Single-ply,DQ
Frank Lietke,Walled Lake Central,120.9,125,M-V,M,250,107.5,290,647.5,SBD,Single-ply,1
Dustin Greer,St. Xavier,117.75,125,M-V,M,227.5,185,210,622.5,SBD,Single-ply,2
Zachary Taylor,St. Xavier,110.02,125,M-V,M,227.5,142.5,237.5,607.5,SBD,Single-ply,3
Justin Howard,Plainwell,113.55,125,M-V,M,230,135,242.5,607.5,SBD,Single-ply,4
Alex Reid,St. Xavier,110.31,125,M-V,M,212.5,137.5,247.5,597.5,SBD,Single-ply,5
Jonathan Jarred,A.S.H.,122.72,125,M-V,M,217.5,152.5,215,585,SBD,Single-ply,6
Craig Weiter,St. Xavier,120.89,125,M-V,M,212.5,152.5,197.5,562.5,SBD,Single-ply,7
Brian Blandin,Manitowoc Lincoln,111.66,125,M-V,M,210,135,202.5,547.5,SBD,Single-ply,8
Andy Prevost,G.E.T. H.S.,118.5,125,M-V,M,195,115,185,495,SBD,Single-ply,9
Justin Newsome,Granite City,135.88,125+,M-V,M,292.5,145,277.5,715,SBD,Single-ply,1
Jake Switalski,Horlick,143.45,125+,M-V,M,252.5,197.5,265,715,SBD,Single-ply,2
David Krupp,Bellevue East,131.21,125+,M-V,M,272.5,142.5,205,620,SBD,Single-ply,4
Chris Anderson #4,G.E.T. H.S.,127.43,125+,M-V,M,252.5,120,212.5,585,SBD,Single-ply,5
Mike Hecht,Vassar,155.67,125+,M-V,M,270,187.5,255,712.5,SBD,Single-ply,3
